\select@language {spanish}
\contentsline {section}{\numberline {1}Introducci\IeC {\'o}n}{2}{section.1}
\contentsline {section}{\numberline {2}Control adaptativo de velocidad de crucero (CAV)}{2}{section.2}
\contentsline {section}{\numberline {3}Sistema de frenado autom\IeC {\'a}tico (FA)}{2}{section.3}
\contentsline {section}{\numberline {4}Control autom\IeC {\'a}tico de la direcci\IeC {\'o}n (CAD)}{3}{section.4}
\contentsline {section}{\numberline {5}Pruebas}{3}{section.5}
\contentsline {section}{\numberline {6}Conclusiones y reflexiones sobre la pr\IeC {\'a}ctica}{4}{section.6}
