\relax 
\providecommand\hyper@newdestlabel[2]{}
\catcode `"\active 
\catcode `<\active 
\catcode `>\active 
\@nameuse{es@quoting}
\providecommand\HyperFirstAtBeginDocument{\AtBeginDocument}
\HyperFirstAtBeginDocument{\ifx\hyper@anchor\@undefined
\global\let\oldcontentsline\contentsline
\gdef\contentsline#1#2#3#4{\oldcontentsline{#1}{#2}{#3}}
\global\let\oldnewlabel\newlabel
\gdef\newlabel#1#2{\newlabelxx{#1}#2}
\gdef\newlabelxx#1#2#3#4#5#6{\oldnewlabel{#1}{{#2}{#3}}}
\AtEndDocument{\ifx\hyper@anchor\@undefined
\let\contentsline\oldcontentsline
\let\newlabel\oldnewlabel
\fi}
\fi}
\global\let\hyper@last\relax 
\gdef\HyperFirstAtBeginDocument#1{#1}
\providecommand\HyField@AuxAddToFields[1]{}
\providecommand\HyField@AuxAddToCoFields[2]{}
\select@language{spanish}
\@writefile{toc}{\select@language{spanish}}
\@writefile{lof}{\select@language{spanish}}
\@writefile{lot}{\select@language{spanish}}
\@writefile{toc}{\contentsline {section}{\numberline {1}Introducci\IeC {\'o}n}{2}{section.1}}
\@writefile{toc}{\contentsline {section}{\numberline {2}Miner\IeC {\'\i }a de texto de forma manual}{2}{section.2}}
\@writefile{lot}{\contentsline {table}{\numberline {1}{\ignorespaces C\IeC {\'a}lculo TF normalizado\relax }}{2}{table.caption.2}}
\@writefile{lot}{\contentsline {table}{\numberline {2}{\ignorespaces C\IeC {\'a}lculo TF-IDF\relax }}{2}{table.caption.3}}
\@writefile{lot}{\contentsline {table}{\numberline {3}{\ignorespaces Documento 6\relax }}{3}{table.caption.4}}
\@writefile{lot}{\contentsline {table}{\numberline {4}{\ignorespaces C\IeC {\'a}lculo TF-IDF con D6\relax }}{3}{table.caption.5}}
\@writefile{lot}{\contentsline {table}{\numberline {5}{\ignorespaces Similitud D6\relax }}{3}{table.caption.6}}
\@writefile{toc}{\contentsline {section}{\numberline {3}Miner\IeC {\'\i }a de texto RapidMiner}{3}{section.3}}
\@writefile{toc}{\contentsline {subsection}{\numberline {3.1}C\IeC {\'a}lculo de similitud}{4}{subsection.3.1}}
\@writefile{toc}{\contentsline {subsection}{\numberline {3.2}Generaci\IeC {\'o}n de grupos}{4}{subsection.3.2}}
\@writefile{lot}{\contentsline {table}{\numberline {6}{\ignorespaces K-Means con 4 clusters\relax }}{5}{table.caption.7}}
\@writefile{toc}{\contentsline {section}{\numberline {4}Consideraciones adicionales}{5}{section.4}}
\@writefile{toc}{\contentsline {section}{\numberline {5}Conclusiones y reflexiones sobre la pr\IeC {\'a}ctica}{6}{section.5}}
