\relax 
\providecommand\hyper@newdestlabel[2]{}
\catcode `"\active 
\catcode `<\active 
\catcode `>\active 
\@nameuse{es@quoting}
\providecommand\HyperFirstAtBeginDocument{\AtBeginDocument}
\HyperFirstAtBeginDocument{\ifx\hyper@anchor\@undefined
\global\let\oldcontentsline\contentsline
\gdef\contentsline#1#2#3#4{\oldcontentsline{#1}{#2}{#3}}
\global\let\oldnewlabel\newlabel
\gdef\newlabel#1#2{\newlabelxx{#1}#2}
\gdef\newlabelxx#1#2#3#4#5#6{\oldnewlabel{#1}{{#2}{#3}}}
\AtEndDocument{\ifx\hyper@anchor\@undefined
\let\contentsline\oldcontentsline
\let\newlabel\oldnewlabel
\fi}
\fi}
\global\let\hyper@last\relax 
\gdef\HyperFirstAtBeginDocument#1{#1}
\providecommand\HyField@AuxAddToFields[1]{}
\providecommand\HyField@AuxAddToCoFields[2]{}
\select@language{spanish}
\@writefile{toc}{\select@language{spanish}}
\@writefile{lof}{\select@language{spanish}}
\@writefile{lot}{\select@language{spanish}}
\@writefile{toc}{\contentsline {section}{\numberline {1}Introducci\IeC {\'o}n}{2}{section.1}}
\@writefile{toc}{\contentsline {subsection}{\numberline {1.1}El videojuego}{2}{subsection.1.1}}
\@writefile{toc}{\contentsline {section}{\numberline {2}Estado del arte}{2}{section.2}}
\@writefile{toc}{\contentsline {subsection}{\numberline {2.1}Investigaci\IeC {\'o}n}{2}{subsection.2.1}}
\@writefile{toc}{\contentsline {subsection}{\numberline {2.2}Aplicaciones similares}{3}{subsection.2.2}}
\@writefile{toc}{\contentsline {subsection}{\numberline {2.3}Telegram}{3}{subsection.2.3}}
\@writefile{toc}{\contentsline {section}{\numberline {3}Predicci\IeC {\'o}n}{4}{section.3}}
\@writefile{toc}{\contentsline {subsection}{\numberline {3.1}Contexto de la serie temporal y procesado de datos}{4}{subsection.3.1}}
\@writefile{toc}{\contentsline {subsection}{\numberline {3.2}Multilayer Perceptron}{4}{subsection.3.2}}
\@writefile{lof}{\contentsline {figure}{\numberline {1}{\ignorespaces Errores en el MLP\relax }}{5}{figure.caption.4}}
\providecommand*\caption@xref[2]{\@setref\relax\@undefined{#1}}
\newlabel{mlp-errors}{{1}{5}{Errores en el MLP\relax }{figure.caption.4}{}}
\@writefile{toc}{\contentsline {subsection}{\numberline {3.3}Long Sort-Term Memory}{5}{subsection.3.3}}
\@writefile{lof}{\contentsline {figure}{\numberline {2}{\ignorespaces LSTM vs MLP en venta\relax }}{6}{figure.caption.7}}
\newlabel{lstm-errors}{{2}{6}{LSTM vs MLP en venta\relax }{figure.caption.7}{}}
\@writefile{toc}{\contentsline {subsection}{\numberline {3.4}Conclusiones generales}{6}{subsection.3.4}}
\@writefile{toc}{\contentsline {section}{\numberline {4}Interfaz}{7}{section.4}}
\@writefile{toc}{\contentsline {subsection}{\numberline {4.1}Bot en Telegram}{7}{subsection.4.1}}
\@writefile{lof}{\contentsline {figure}{\numberline {3}{\ignorespaces Consulta /prediccion\relax }}{8}{figure.caption.8}}
\newlabel{consultaPrediccion}{{3}{8}{Consulta /prediccion\relax }{figure.caption.8}{}}
\@writefile{lof}{\contentsline {figure}{\numberline {4}{\ignorespaces Teclado interactivo\relax }}{8}{figure.caption.9}}
\newlabel{teclado-interactivo}{{4}{8}{Teclado interactivo\relax }{figure.caption.9}{}}
\@writefile{toc}{\contentsline {subsection}{\numberline {4.2}Natural Language Processing}{8}{subsection.4.2}}
\@writefile{lof}{\contentsline {figure}{\numberline {5}{\ignorespaces Consulta con lenguaje natural\relax }}{9}{figure.caption.10}}
\newlabel{nlp}{{5}{9}{Consulta con lenguaje natural\relax }{figure.caption.10}{}}
\@writefile{toc}{\contentsline {section}{\numberline {5}Conclusiones personales}{9}{section.5}}
\@writefile{toc}{\contentsline {section}{\numberline {6}Referencias}{9}{section.6}}
\@writefile{toc}{\contentsline {paragraph}{Algunos trabajos de investigaci\IeC {\'o}n}{9}{section*.11}}
\@writefile{toc}{\contentsline {paragraph}{Sobre Guild Wars 2}{10}{section*.12}}
\@writefile{toc}{\contentsline {paragraph}{API de Guild Wars 2}{10}{section*.13}}
\@writefile{toc}{\contentsline {paragraph}{TensorFlow}{10}{section*.14}}
\@writefile{toc}{\contentsline {paragraph}{Conceptos generales sobre LSTM}{10}{section*.15}}
