@relation cajero1_14

@attribute d1 numeric
@attribute d2 numeric
@attribute d3 numeric
@attribute d4 numeric
@attribute d5 numeric
@attribute d6 numeric
@attribute d7 numeric
@attribute d8 numeric
@attribute d9 numeric
@attribute d10 numeric
@attribute d11 numeric
@attribute d12 numeric
@attribute d13 numeric
@attribute d14 numeric
@attribute prediction numeric


@data
21499,22761,25581,26927,4946,0000,4946,5910,8730,17404,23682,14598,7653,11806,14101
22761,25581,26927,4946,0000,4946,5910,8730,17404,23682,14598,7653,11806,14101,15490
25581,26927,4946,0000,4946,5910,8730,17404,23682,14598,7653,11806,14101,15490,22265
26927,4946,0000,4946,5910,8730,17404,23682,14598,7653,11806,14101,15490,22265,12330
4946,0000,4946,5910,8730,17404,23682,14598,7653,11806,14101,15490,22265,12330,10091
0000,4946,5910,8730,17404,23682,14598,7653,11806,14101,15490,22265,12330,10091,7951
4946,5910,8730,17404,23682,14598,7653,11806,14101,15490,22265,12330,10091,7951,7313
5910,8730,17404,23682,14598,7653,11806,14101,15490,22265,12330,10091,7951,7313,16256
8730,17404,23682,14598,7653,11806,14101,15490,22265,12330,10091,7951,7313,16256,13223
17404,23682,14598,7653,11806,14101,15490,22265,12330,10091,7951,7313,16256,13223,14470
23682,14598,7653,11806,14101,15490,22265,12330,10091,7951,7313,16256,13223,14470,19770
14598,7653,11806,14101,15490,22265,12330,10091,7951,7313,16256,13223,14470,19770,11380
7653,11806,14101,15490,22265,12330,10091,7951,7313,16256,13223,14470,19770,11380,10232
11806,14101,15490,22265,12330,10091,7951,7313,16256,13223,14470,19770,11380,10232,23909
14101,15490,22265,12330,10091,7951,7313,16256,13223,14470,19770,11380,10232,23909,19586
15490,22265,12330,10091,7951,7313,16256,13223,14470,19770,11380,10232,23909,19586,20167
22265,12330,10091,7951,7313,16256,13223,14470,19770,11380,10232,23909,19586,20167,23058
12330,10091,7951,7313,16256,13223,14470,19770,11380,10232,23909,19586,20167,23058,29762
10091,7951,7313,16256,13223,14470,19770,11380,10232,23909,19586,20167,23058,29762,14612
7951,7313,16256,13223,14470,19770,11380,10232,23909,19586,20167,23058,29762,14612,9070
7313,16256,13223,14470,19770,11380,10232,23909,19586,20167,23058,29762,14612,9070,17701
16256,13223,14470,19770,11380,10232,23909,19586,20167,23058,29762,14612,9070,17701,20422
13223,14470,19770,11380,10232,23909,19586,20167,23058,29762,14612,9070,17701,20422,16086
14470,19770,11380,10232,23909,19586,20167,23058,29762,14612,9070,17701,20422,16086,23583
19770,11380,10232,23909,19586,20167,23058,29762,14612,9070,17701,20422,16086,23583,22832
11380,10232,23909,19586,20167,23058,29762,14612,9070,17701,20422,16086,23583,22832,16397
10232,23909,19586,20167,23058,29762,14612,9070,17701,20422,16086,23583,22832,16397,17701
23909,19586,20167,23058,29762,14612,9070,17701,20422,16086,23583,22832,16397,17701,25283
19586,20167,23058,29762,14612,9070,17701,20422,16086,23583,22832,16397,17701,25283,24461
20167,23058,29762,14612,9070,17701,20422,16086,23583,22832,16397,17701,25283,24461,23880
23058,29762,14612,9070,17701,20422,16086,23583,22832,16397,17701,25283,24461,23880,26205
29762,14612,9070,17701,20422,16086,23583,22832,16397,17701,25283,24461,23880,26205,33716
14612,9070,17701,20422,16086,23583,22832,16397,17701,25283,24461,23880,26205,33716,17942
9070,17701,20422,16086,23583,22832,16397,17701,25283,24461,23880,26205,33716,17942,0000
17701,20422,16086,23583,22832,16397,17701,25283,24461,23880,26205,33716,17942,0000,25014
20422,16086,23583,22832,16397,17701,25283,24461,23880,26205,33716,17942,0000,25014,27367
16086,23583,22832,16397,17701,25283,24461,23880,26205,33716,17942,0000,25014,27367,19983
23583,22832,16397,17701,25283,24461,23880,26205,33716,17942,0000,25014,27367,19983,24603
22832,16397,17701,25283,24461,23880,26205,33716,17942,0000,25014,27367,19983,24603,31505
16397,17701,25283,24461,23880,26205,33716,17942,0000,25014,27367,19983,24603,31505,14229
17701,25283,24461,23880,26205,33716,17942,0000,25014,27367,19983,24603,31505,14229,11224
25283,24461,23880,26205,33716,17942,0000,25014,27367,19983,24603,31505,14229,11224,19260
24461,23880,26205,33716,17942,0000,25014,27367,19983,24603,31505,14229,11224,19260,11947
23880,26205,33716,17942,0000,25014,27367,19983,24603,31505,14229,11224,19260,11947,24022
26205,33716,17942,0000,25014,27367,19983,24603,31505,14229,11224,19260,11947,24022,24731
33716,17942,0000,25014,27367,19983,24603,31505,14229,11224,19260,11947,24022,24731,25227
17942,0000,25014,27367,19983,24603,31505,14229,11224,19260,11947,24022,24731,25227,13393
0000,25014,27367,19983,24603,31505,14229,11224,19260,11947,24022,24731,25227,13393,12557
25014,27367,19983,24603,31505,14229,11224,19260,11947,24022,24731,25227,13393,12557,18920
27367,19983,24603,31505,14229,11224,19260,11947,24022,24731,25227,13393,12557,18920,18693
19983,24603,31505,14229,11224,19260,11947,24022,24731,25227,13393,12557,18920,18693,19246
24603,31505,14229,11224,19260,11947,24022,24731,25227,13393,12557,18920,18693,19246,24291
31505,14229,11224,19260,11947,24022,24731,25227,13393,12557,18920,18693,19246,24291,25241
14229,11224,19260,11947,24022,24731,25227,13393,12557,18920,18693,19246,24291,25241,13265
11224,19260,11947,24022,24731,25227,13393,12557,18920,18693,19246,24291,25241,13265,12146
19260,11947,24022,24731,25227,13393,12557,18920,18693,19246,24291,25241,13265,12146,9708
11947,24022,24731,25227,13393,12557,18920,18693,19246,24291,25241,13265,12146,9708,23639
24022,24731,25227,13393,12557,18920,18693,19246,24291,25241,13265,12146,9708,23639,19388
24731,25227,13393,12557,18920,18693,19246,24291,25241,13265,12146,9708,23639,19388,21641
25227,13393,12557,18920,18693,19246,24291,25241,13265,12146,9708,23639,19388,21641,34963
13393,12557,18920,18693,19246,24291,25241,13265,12146,9708,23639,19388,21641,34963,15505
12557,18920,18693,19246,24291,25241,13265,12146,9708,23639,19388,21641,34963,15505,12018
18920,18693,19246,24291,25241,13265,12146,9708,23639,19388,21641,34963,15505,12018,25057
18693,19246,24291,25241,13265,12146,9708,23639,19388,21641,34963,15505,12018,25057,19657
19246,24291,25241,13265,12146,9708,23639,19388,21641,34963,15505,12018,25057,19657,16539
24291,25241,13265,12146,9708,23639,19388,21641,34963,15505,12018,25057,19657,16539,27608
25241,13265,12146,9708,23639,19388,21641,34963,15505,12018,25057,19657,16539,27608,28784
13265,12146,9708,23639,19388,21641,34963,15505,12018,25057,19657,16539,27608,28784,19048
12146,9708,23639,19388,21641,34963,15505,12018,25057,19657,16539,27608,28784,19048,11494
9708,23639,19388,21641,34963,15505,12018,25057,19657,16539,27608,28784,19048,11494,15618
23639,19388,21641,34963,15505,12018,25057,19657,16539,27608,28784,19048,11494,15618,16723
19388,21641,34963,15505,12018,25057,19657,16539,27608,28784,19048,11494,15618,16723,16383
21641,34963,15505,12018,25057,19657,16539,27608,28784,19048,11494,15618,16723,16383,16241
34963,15505,12018,25057,19657,16539,27608,28784,19048,11494,15618,16723,16383,16241,25652
15505,12018,25057,19657,16539,27608,28784,19048,11494,15618,16723,16383,16241,25652,11295
12018,25057,19657,16539,27608,28784,19048,11494,15618,16723,16383,16241,25652,11295,9906
25057,19657,16539,27608,28784,19048,11494,15618,16723,16383,16241,25652,11295,9906,21131
19657,16539,27608,28784,19048,11494,15618,16723,16383,16241,25652,11295,9906,21131,15235
16539,27608,28784,19048,11494,15618,16723,16383,16241,25652,11295,9906,21131,15235,18056
27608,28784,19048,11494,15618,16723,16383,16241,25652,11295,9906,21131,15235,18056,18835
28784,19048,11494,15618,16723,16383,16241,25652,11295,9906,21131,15235,18056,18835,20281
19048,11494,15618,16723,16383,16241,25652,11295,9906,21131,15235,18056,18835,20281,10516
11494,15618,16723,16383,16241,25652,11295,9906,21131,15235,18056,18835,20281,10516,9084
15618,16723,16383,16241,25652,11295,9906,21131,15235,18056,18835,20281,10516,9084,15689
16723,16383,16241,25652,11295,9906,21131,15235,18056,18835,20281,10516,9084,15689,17078
16383,16241,25652,11295,9906,21131,15235,18056,18835,20281,10516,9084,15689,17078,16341
16241,25652,11295,9906,21131,15235,18056,18835,20281,10516,9084,15689,17078,16341,15901
25652,11295,9906,21131,15235,18056,18835,20281,10516,9084,15689,17078,16341,15901,21457
11295,9906,21131,15235,18056,18835,20281,10516,9084,15689,17078,16341,15901,21457,10232
9906,21131,15235,18056,18835,20281,10516,9084,15689,17078,16341,15901,21457,10232,10346
21131,15235,18056,18835,20281,10516,9084,15689,17078,16341,15901,21457,10232,10346,18169
15235,18056,18835,20281,10516,9084,15689,17078,16341,15901,21457,10232,10346,18169,17928
18056,18835,20281,10516,9084,15689,17078,16341,15901,21457,10232,10346,18169,17928,19048
18835,20281,10516,9084,15689,17078,16341,15901,21457,10232,10346,18169,17928,19048,17645
20281,10516,9084,15689,17078,16341,15901,21457,10232,10346,18169,17928,19048,17645,16440
10516,9084,15689,17078,16341,15901,21457,10232,10346,18169,17928,19048,17645,16440,9609
9084,15689,17078,16341,15901,21457,10232,10346,18169,17928,19048,17645,16440,9609,8787
15689,17078,16341,15901,21457,10232,10346,18169,17928,19048,17645,16440,9609,8787,10700
17078,16341,15901,21457,10232,10346,18169,17928,19048,17645,16440,9609,8787,10700,2197
16341,15901,21457,10232,10346,18169,17928,19048,17645,16440,9609,8787,10700,2197,21344
15901,21457,10232,10346,18169,17928,19048,17645,16440,9609,8787,10700,2197,21344,13931
21457,10232,10346,18169,17928,19048,17645,16440,9609,8787,10700,2197,21344,13931,14456
10232,10346,18169,17928,19048,17645,16440,9609,8787,10700,2197,21344,13931,14456,10232
10346,18169,17928,19048,17645,16440,9609,8787,10700,2197,21344,13931,14456,10232,8588
18169,17928,19048,17645,16440,9609,8787,10700,2197,21344,13931,14456,10232,8588,15094
17928,19048,17645,16440,9609,8787,10700,2197,21344,13931,14456,10232,8588,15094,17885
19048,17645,16440,9609,8787,10700,2197,21344,13931,14456,10232,8588,15094,17885,15561
17645,16440,9609,8787,10700,2197,21344,13931,14456,10232,8588,15094,17885,15561,18084
16440,9609,8787,10700,2197,21344,13931,14456,10232,8588,15094,17885,15561,18084,20762
9609,8787,10700,2197,21344,13931,14456,10232,8588,15094,17885,15561,18084,20762,0000
8787,10700,2197,21344,13931,14456,10232,8588,15094,17885,15561,18084,20762,0000,0000
10700,2197,21344,13931,14456,10232,8588,15094,17885,15561,18084,20762,0000,0000,13053
2197,21344,13931,14456,10232,8588,15094,17885,15561,18084,20762,0000,0000,13053,13223
21344,13931,14456,10232,8588,15094,17885,15561,18084,20762,0000,0000,13053,13223,14980
13931,14456,10232,8588,15094,17885,15561,18084,20762,0000,0000,13053,13223,14980,15221
14456,10232,8588,15094,17885,15561,18084,20762,0000,0000,13053,13223,14980,15221,18566
10232,8588,15094,17885,15561,18084,20762,0000,0000,13053,13223,14980,15221,18566,8872
8588,15094,17885,15561,18084,20762,0000,0000,13053,13223,14980,15221,18566,8872,9113
15094,17885,15561,18084,20762,0000,0000,13053,13223,14980,15221,18566,8872,9113,13620
17885,15561,18084,20762,0000,0000,13053,13223,14980,15221,18566,8872,9113,13620,15646
15561,18084,20762,0000,0000,13053,13223,14980,15221,18566,8872,9113,13620,15646,16454
18084,20762,0000,0000,13053,13223,14980,15221,18566,8872,9113,13620,15646,16454,20351
20762,0000,0000,13053,13223,14980,15221,18566,8872,9113,13620,15646,16454,20351,19898
0000,0000,13053,13223,14980,15221,18566,8872,9113,13620,15646,16454,20351,19898,0000
0000,13053,13223,14980,15221,18566,8872,9113,13620,15646,16454,20351,19898,0000,0000
13053,13223,14980,15221,18566,8872,9113,13620,15646,16454,20351,19898,0000,0000,0000
13223,14980,15221,18566,8872,9113,13620,15646,16454,20351,19898,0000,0000,0000,5003
14980,15221,18566,8872,9113,13620,15646,16454,20351,19898,0000,0000,0000,5003,13492
15221,18566,8872,9113,13620,15646,16454,20351,19898,0000,0000,0000,5003,13492,13719
18566,8872,9113,13620,15646,16454,20351,19898,0000,0000,0000,5003,13492,13719,19770
8872,9113,13620,15646,16454,20351,19898,0000,0000,0000,5003,13492,13719,19770,8815
9113,13620,15646,16454,20351,19898,0000,0000,0000,5003,13492,13719,19770,8815,7979
13620,15646,16454,20351,19898,0000,0000,0000,5003,13492,13719,19770,8815,7979,11522
15646,16454,20351,19898,0000,0000,0000,5003,13492,13719,19770,8815,7979,11522,14243
16454,20351,19898,0000,0000,0000,5003,13492,13719,19770,8815,7979,11522,14243,13124
20351,19898,0000,0000,0000,5003,13492,13719,19770,8815,7979,11522,14243,13124,20266
19898,0000,0000,0000,5003,13492,13719,19770,8815,7979,11522,14243,13124,20266,23243
0000,0000,0000,5003,13492,13719,19770,8815,7979,11522,14243,13124,20266,23243,10204
0000,0000,5003,13492,13719,19770,8815,7979,11522,14243,13124,20266,23243,10204,9481
0000,5003,13492,13719,19770,8815,7979,11522,14243,13124,20266,23243,10204,9481,13591
5003,13492,13719,19770,8815,7979,11522,14243,13124,20266,23243,10204,9481,13591,13024
13492,13719,19770,8815,7979,11522,14243,13124,20266,23243,10204,9481,13591,13024,12387
13719,19770,8815,7979,11522,14243,13124,20266,23243,10204,9481,13591,13024,12387,16171
19770,8815,7979,11522,14243,13124,20266,23243,10204,9481,13591,13024,12387,16171,19388
8815,7979,11522,14243,13124,20266,23243,10204,9481,13591,13024,12387,16171,19388,12939
7979,11522,14243,13124,20266,23243,10204,9481,13591,13024,12387,16171,19388,12939,16879
11522,14243,13124,20266,23243,10204,9481,13591,13024,12387,16171,19388,12939,16879,8177
14243,13124,20266,23243,10204,9481,13591,13024,12387,16171,19388,12939,16879,8177,10672
13124,20266,23243,10204,9481,13591,13024,12387,16171,19388,12939,16879,8177,10672,12316
20266,23243,10204,9481,13591,13024,12387,16171,19388,12939,16879,8177,10672,12316,15703
23243,10204,9481,13591,13024,12387,16171,19388,12939,16879,8177,10672,12316,15703,19501
10204,9481,13591,13024,12387,16171,19388,12939,16879,8177,10672,12316,15703,19501,10686
9481,13591,13024,12387,16171,19388,12939,16879,8177,10672,12316,15703,19501,10686,6037
13591,13024,12387,16171,19388,12939,16879,8177,10672,12316,15703,19501,10686,6037,9736
13024,12387,16171,19388,12939,16879,8177,10672,12316,15703,19501,10686,6037,9736,8305
12387,16171,19388,12939,16879,8177,10672,12316,15703,19501,10686,6037,9736,8305,13790
16171,19388,12939,16879,8177,10672,12316,15703,19501,10686,6037,9736,8305,13790,15363
19388,12939,16879,8177,10672,12316,15703,19501,10686,6037,9736,8305,13790,15363,17616
12939,16879,8177,10672,12316,15703,19501,10686,6037,9736,8305,13790,15363,17616,10133
16879,8177,10672,12316,15703,19501,10686,6037,9736,8305,13790,15363,17616,10133,1913
8177,10672,12316,15703,19501,10686,6037,9736,8305,13790,15363,17616,10133,1913,9935
10672,12316,15703,19501,10686,6037,9736,8305,13790,15363,17616,10133,1913,9935,11295
12316,15703,19501,10686,6037,9736,8305,13790,15363,17616,10133,1913,9935,11295,14512
15703,19501,10686,6037,9736,8305,13790,15363,17616,10133,1913,9935,11295,14512,12585
19501,10686,6037,9736,8305,13790,15363,17616,10133,1913,9935,11295,14512,12585,22151
10686,6037,9736,8305,13790,15363,17616,10133,1913,9935,11295,14512,12585,22151,10884
6037,9736,8305,13790,15363,17616,10133,1913,9935,11295,14512,12585,22151,10884,0000
9736,8305,13790,15363,17616,10133,1913,9935,11295,14512,12585,22151,10884,0000,14116
8305,13790,15363,17616,10133,1913,9935,11295,14512,12585,22151,10884,0000,14116,11848
13790,15363,17616,10133,1913,9935,11295,14512,12585,22151,10884,0000,14116,11848,15292
15363,17616,10133,1913,9935,11295,14512,12585,22151,10884,0000,14116,11848,15292,2721
17616,10133,1913,9935,11295,14512,12585,22151,10884,0000,14116,11848,15292,2721,38747
10133,1913,9935,11295,14512,12585,22151,10884,0000,14116,11848,15292,2721,38747,10913
1913,9935,11295,14512,12585,22151,10884,0000,14116,11848,15292,2721,38747,10913,3798
9935,11295,14512,12585,22151,10884,0000,14116,11848,15292,2721,38747,10913,3798,16808
11295,14512,12585,22151,10884,0000,14116,11848,15292,2721,38747,10913,3798,16808,17319
14512,12585,22151,10884,0000,14116,11848,15292,2721,38747,10913,3798,16808,17319,24150
12585,22151,10884,0000,14116,11848,15292,2721,38747,10913,3798,16808,17319,24150,14116
22151,10884,0000,14116,11848,15292,2721,38747,10913,3798,16808,17319,24150,14116,29578
10884,0000,14116,11848,15292,2721,38747,10913,3798,16808,17319,24150,14116,29578,17234
0000,14116,11848,15292,2721,38747,10913,3798,16808,17319,24150,14116,29578,17234,3713
14116,11848,15292,2721,38747,10913,3798,16808,17319,24150,14116,29578,17234,3713,23484
11848,15292,2721,38747,10913,3798,16808,17319,24150,14116,29578,17234,3713,23484,19331
15292,2721,38747,10913,3798,16808,17319,24150,14116,29578,17234,3713,23484,19331,22137
2721,38747,10913,3798,16808,17319,24150,14116,29578,17234,3713,23484,19331,22137,24603
38747,10913,3798,16808,17319,24150,14116,29578,17234,3713,23484,19331,22137,24603,29294
10913,3798,16808,17319,24150,14116,29578,17234,3713,23484,19331,22137,24603,29294,0000
3798,16808,17319,24150,14116,29578,17234,3713,23484,19331,22137,24603,29294,0000,0000
16808,17319,24150,14116,29578,17234,3713,23484,19331,22137,24603,29294,0000,0000,0000
17319,24150,14116,29578,17234,3713,23484,19331,22137,24603,29294,0000,0000,0000,16964
24150,14116,29578,17234,3713,23484,19331,22137,24603,29294,0000,0000,0000,16964,13010
14116,29578,17234,3713,23484,19331,22137,24603,29294,0000,0000,0000,16964,13010,24206
29578,17234,3713,23484,19331,22137,24603,29294,0000,0000,0000,16964,13010,24206,26772
17234,3713,23484,19331,22137,24603,29294,0000,0000,0000,16964,13010,24206,26772,18070
3713,23484,19331,22137,24603,29294,0000,0000,0000,16964,13010,24206,26772,18070,13903
23484,19331,22137,24603,29294,0000,0000,0000,16964,13010,24206,26772,18070,13903,24291
19331,22137,24603,29294,0000,0000,0000,16964,13010,24206,26772,18070,13903,24291,25227
22137,24603,29294,0000,0000,0000,16964,13010,24206,26772,18070,13903,24291,25227,23739
24603,29294,0000,0000,0000,16964,13010,24206,26772,18070,13903,24291,25227,23739,29280
29294,0000,0000,0000,16964,13010,24206,26772,18070,13903,24291,25227,23739,29280,35643
0000,0000,0000,16964,13010,24206,26772,18070,13903,24291,25227,23739,29280,35643,20507
0000,0000,16964,13010,24206,26772,18070,13903,24291,25227,23739,29280,35643,20507,9552
0000,16964,13010,24206,26772,18070,13903,24291,25227,23739,29280,35643,20507,9552,17319
16964,13010,24206,26772,18070,13903,24291,25227,23739,29280,35643,20507,9552,17319,23200
13010,24206,26772,18070,13903,24291,25227,23739,29280,35643,20507,9552,17319,23200,22803
24206,26772,18070,13903,24291,25227,23739,29280,35643,20507,9552,17319,23200,22803,22251
26772,18070,13903,24291,25227,23739,29280,35643,20507,9552,17319,23200,22803,22251,37415
18070,13903,24291,25227,23739,29280,35643,20507,9552,17319,23200,22803,22251,37415,18707
13903,24291,25227,23739,29280,35643,20507,9552,17319,23200,22803,22251,37415,18707,22080
24291,25227,23739,29280,35643,20507,9552,17319,23200,22803,22251,37415,18707,22080,26176
25227,23739,29280,35643,20507,9552,17319,23200,22803,22251,37415,18707,22080,26176,25298
23739,29280,35643,20507,9552,17319,23200,22803,22251,37415,18707,22080,26176,25298,27636
29280,35643,20507,9552,17319,23200,22803,22251,37415,18707,22080,26176,25298,27636,26871
35643,20507,9552,17319,23200,22803,22251,37415,18707,22080,26176,25298,27636,26871,35006
20507,9552,17319,23200,22803,22251,37415,18707,22080,26176,25298,27636,26871,35006,16497
9552,17319,23200,22803,22251,37415,18707,22080,26176,25298,27636,26871,35006,16497,17007
17319,23200,22803,22251,37415,18707,22080,26176,25298,27636,26871,35006,16497,17007,32894
23200,22803,22251,37415,18707,22080,26176,25298,27636,26871,35006,16497,17007,32894,22449
22803,22251,37415,18707,22080,26176,25298,27636,26871,35006,16497,17007,32894,22449,25057
22251,37415,18707,22080,26176,25298,27636,26871,35006,16497,17007,32894,22449,25057,25879
37415,18707,22080,26176,25298,27636,26871,35006,16497,17007,32894,22449,25057,25879,29124
18707,22080,26176,25298,27636,26871,35006,16497,17007,32894,22449,25057,25879,29124,14881
22080,26176,25298,27636,26871,35006,16497,17007,32894,22449,25057,25879,29124,14881,13450
26176,25298,27636,26871,35006,16497,17007,32894,22449,25057,25879,29124,14881,13450,24164
25298,27636,26871,35006,16497,17007,32894,22449,25057,25879,29124,14881,13450,24164,19402
27636,26871,35006,16497,17007,32894,22449,25057,25879,29124,14881,13450,24164,19402,21981
26871,35006,16497,17007,32894,22449,25057,25879,29124,14881,13450,24164,19402,21981,24447
35006,16497,17007,32894,22449,25057,25879,29124,14881,13450,24164,19402,21981,24447,37146
16497,17007,32894,22449,25057,25879,29124,14881,13450,24164,19402,21981,24447,37146,19572
17007,32894,22449,25057,25879,29124,14881,13450,24164,19402,21981,24447,37146,19572,14470
32894,22449,25057,25879,29124,14881,13450,24164,19402,21981,24447,37146,19572,14470,22888
22449,25057,25879,29124,14881,13450,24164,19402,21981,24447,37146,19572,14470,22888,17234
25057,25879,29124,14881,13450,24164,19402,21981,24447,37146,19572,14470,22888,17234,21811
25879,29124,14881,13450,24164,19402,21981,24447,37146,19572,14470,22888,17234,21811,24858
29124,14881,13450,24164,19402,21981,24447,37146,19572,14470,22888,17234,21811,24858,27891
14881,13450,24164,19402,21981,24447,37146,19572,14470,22888,17234,21811,24858,27891,16879
13450,24164,19402,21981,24447,37146,19572,14470,22888,17234,21811,24858,27891,16879,17474
24164,19402,21981,24447,37146,19572,14470,22888,17234,21811,24858,27891,16879,17474,26644
19402,21981,24447,37146,19572,14470,22888,17234,21811,24858,27891,16879,17474,26644,24150
21981,24447,37146,19572,14470,22888,17234,21811,24858,27891,16879,17474,26644,24150,23285
24447,37146,19572,14470,22888,17234,21811,24858,27891,16879,17474,26644,24150,23285,24178
37146,19572,14470,22888,17234,21811,24858,27891,16879,17474,26644,24150,23285,24178,35289
19572,14470,22888,17234,21811,24858,27891,16879,17474,26644,24150,23285,24178,35289,18707
14470,22888,17234,21811,24858,27891,16879,17474,26644,24150,23285,24178,35289,18707,0000
22888,17234,21811,24858,27891,16879,17474,26644,24150,23285,24178,35289,18707,0000,33518
17234,21811,24858,27891,16879,17474,26644,24150,23285,24178,35289,18707,0000,33518,23512
21811,24858,27891,16879,17474,26644,24150,23285,24178,35289,18707,0000,33518,23512,9991
24858,27891,16879,17474,26644,24150,23285,24178,35289,18707,0000,33518,23512,9991,28260
27891,16879,17474,26644,24150,23285,24178,35289,18707,0000,33518,23512,9991,28260,33659
16879,17474,26644,24150,23285,24178,35289,18707,0000,33518,23512,9991,28260,33659,17815
17474,26644,24150,23285,24178,35289,18707,0000,33518,23512,9991,28260,33659,17815,16539
26644,24150,23285,24178,35289,18707,0000,33518,23512,9991,28260,33659,17815,16539,27976
24150,23285,24178,35289,18707,0000,33518,23512,9991,28260,33659,17815,16539,27976,24532
23285,24178,35289,18707,0000,33518,23512,9991,28260,33659,17815,16539,27976,24532,22789
24178,35289,18707,0000,33518,23512,9991,28260,33659,17815,16539,27976,24532,22789,26219
35289,18707,0000,33518,23512,9991,28260,33659,17815,16539,27976,24532,22789,26219,35658
18707,0000,33518,23512,9991,28260,33659,17815,16539,27976,24532,22789,26219,35658,17985
0000,33518,23512,9991,28260,33659,17815,16539,27976,24532,22789,26219,35658,17985,14725
33518,23512,9991,28260,33659,17815,16539,27976,24532,22789,26219,35658,17985,14725,27664
23512,9991,28260,33659,17815,16539,27976,24532,22789,26219,35658,17985,14725,27664,27353
9991,28260,33659,17815,16539,27976,24532,22789,26219,35658,17985,14725,27664,27353,31916
28260,33659,17815,16539,27976,24532,22789,26219,35658,17985,14725,27664,27353,31916,29521
33659,17815,16539,27976,24532,22789,26219,35658,17985,14725,27664,27353,31916,29521,39158
17815,16539,27976,24532,22789,26219,35658,17985,14725,27664,27353,31916,29521,39158,18835
16539,27976,24532,22789,26219,35658,17985,14725,27664,27353,31916,29521,39158,18835,11933
27976,24532,22789,26219,35658,17985,14725,27664,27353,31916,29521,39158,18835,11933,15490
24532,22789,26219,35658,17985,14725,27664,27353,31916,29521,39158,18835,11933,15490,13237
22789,26219,35658,17985,14725,27664,27353,31916,29521,39158,18835,11933,15490,13237,1842
26219,35658,17985,14725,27664,27353,31916,29521,39158,18835,11933,15490,13237,1842,0000
35658,17985,14725,27664,27353,31916,29521,39158,18835,11933,15490,13237,1842,0000,7115
17985,14725,27664,27353,31916,29521,39158,18835,11933,15490,13237,1842,0000,7115,6009
14725,27664,27353,31916,29521,39158,18835,11933,15490,13237,1842,0000,7115,6009,6222
27664,27353,31916,29521,39158,18835,11933,15490,13237,1842,0000,7115,6009,6222,8603
27353,31916,29521,39158,18835,11933,15490,13237,1842,0000,7115,6009,6222,8603,11650
31916,29521,39158,18835,11933,15490,13237,1842,0000,7115,6009,6222,8603,11650,5556
29521,39158,18835,11933,15490,13237,1842,0000,7115,6009,6222,8603,11650,5556,11125
39158,18835,11933,15490,13237,1842,0000,7115,6009,6222,8603,11650,5556,11125,12302
18835,11933,15490,13237,1842,0000,7115,6009,6222,8603,11650,5556,11125,12302,7228
11933,15490,13237,1842,0000,7115,6009,6222,8603,11650,5556,11125,12302,7228,6902
15490,13237,1842,0000,7115,6009,6222,8603,11650,5556,11125,12302,7228,6902,15575
13237,1842,0000,7115,6009,6222,8603,11650,5556,11125,12302,7228,6902,15575,10799
1842,0000,7115,6009,6222,8603,11650,5556,11125,12302,7228,6902,15575,10799,11310
0000,7115,6009,6222,8603,11650,5556,11125,12302,7228,6902,15575,10799,11310,16142
7115,6009,6222,8603,11650,5556,11125,12302,7228,6902,15575,10799,11310,16142,18849
6009,6222,8603,11650,5556,11125,12302,7228,6902,15575,10799,11310,16142,18849,8291
6222,8603,11650,5556,11125,12302,7228,6902,15575,10799,11310,16142,18849,8291,8588
8603,11650,5556,11125,12302,7228,6902,15575,10799,11310,16142,18849,8291,8588,21599
11650,5556,11125,12302,7228,6902,15575,10799,11310,16142,18849,8291,8588,21599,15094
5556,11125,12302,7228,6902,15575,10799,11310,16142,18849,8291,8588,21599,15094,17361
11125,12302,7228,6902,15575,10799,11310,16142,18849,8291,8588,21599,15094,17361,17474
12302,7228,6902,15575,10799,11310,16142,18849,8291,8588,21599,15094,17361,17474,20479
7228,6902,15575,10799,11310,16142,18849,8291,8588,21599,15094,17361,17474,20479,13776
6902,15575,10799,11310,16142,18849,8291,8588,21599,15094,17361,17474,20479,13776,11338
15575,10799,11310,16142,18849,8291,8588,21599,15094,17361,17474,20479,13776,11338,25340
10799,11310,16142,18849,8291,8588,21599,15094,17361,17474,20479,13776,11338,25340,16908
11310,16142,18849,8291,8588,21599,15094,17361,17474,20479,13776,11338,25340,16908,17588
16142,18849,8291,8588,21599,15094,17361,17474,20479,13776,11338,25340,16908,17588,22945
18849,8291,8588,21599,15094,17361,17474,20479,13776,11338,25340,16908,17588,22945,27877
8291,8588,21599,15094,17361,17474,20479,13776,11338,25340,16908,17588,22945,27877,21273
8588,21599,15094,17361,17474,20479,13776,11338,25340,16908,17588,22945,27877,21273,16808
21599,15094,17361,17474,20479,13776,11338,25340,16908,17588,22945,27877,21273,16808,20096
15094,17361,17474,20479,13776,11338,25340,16908,17588,22945,27877,21273,16808,20096,20720
17361,17474,20479,13776,11338,25340,16908,17588,22945,27877,21273,16808,20096,20720,20394
17474,20479,13776,11338,25340,16908,17588,22945,27877,21273,16808,20096,20720,20394,25184
20479,13776,11338,25340,16908,17588,22945,27877,21273,16808,20096,20720,20394,25184,33220
13776,11338,25340,16908,17588,22945,27877,21273,16808,20096,20720,20394,25184,33220,17914
11338,25340,16908,17588,22945,27877,21273,16808,20096,20720,20394,25184,33220,17914,17786
25340,16908,17588,22945,27877,21273,16808,20096,20720,20394,25184,33220,17914,17786,28656
16908,17588,22945,27877,21273,16808,20096,20720,20394,25184,33220,17914,17786,28656,25057
17588,22945,27877,21273,16808,20096,20720,20394,25184,33220,17914,17786,28656,25057,22874
22945,27877,21273,16808,20096,20720,20394,25184,33220,17914,17786,28656,25057,22874,29804
27877,21273,16808,20096,20720,20394,25184,33220,17914,17786,28656,25057,22874,29804,32667
21273,16808,20096,20720,20394,25184,33220,17914,17786,28656,25057,22874,29804,32667,17021
16808,20096,20720,20394,25184,33220,17914,17786,28656,25057,22874,29804,32667,17021,19785
20096,20720,20394,25184,33220,17914,17786,28656,25057,22874,29804,32667,17021,19785,24164
20720,20394,25184,33220,17914,17786,28656,25057,22874,29804,32667,17021,19785,24164,21854
20394,25184,33220,17914,17786,28656,25057,22874,29804,32667,17021,19785,24164,21854,23058
25184,33220,17914,17786,28656,25057,22874,29804,32667,17021,19785,24164,21854,23058,25354
33220,17914,17786,28656,25057,22874,29804,32667,17021,19785,24164,21854,23058,25354,36253
17914,17786,28656,25057,22874,29804,32667,17021,19785,24164,21854,23058,25354,36253,18268
17786,28656,25057,22874,29804,32667,17021,19785,24164,21854,23058,25354,36253,18268,15760
28656,25057,22874,29804,32667,17021,19785,24164,21854,23058,25354,36253,18268,15760,23795
25057,22874,29804,32667,17021,19785,24164,21854,23058,25354,36253,18268,15760,23795,22279
22874,29804,32667,17021,19785,24164,21854,23058,25354,36253,18268,15760,23795,22279,25043
29804,32667,17021,19785,24164,21854,23058,25354,36253,18268,15760,23795,22279,25043,27324
32667,17021,19785,24164,21854,23058,25354,36253,18268,15760,23795,22279,25043,27324,31278
17021,19785,24164,21854,23058,25354,36253,18268,15760,23795,22279,25043,27324,31278,18566
19785,24164,21854,23058,25354,36253,18268,15760,23795,22279,25043,27324,31278,18566,3741
24164,21854,23058,25354,36253,18268,15760,23795,22279,25043,27324,31278,18566,3741,12954
21854,23058,25354,36253,18268,15760,23795,22279,25043,27324,31278,18566,3741,12954,12387
23058,25354,36253,18268,15760,23795,22279,25043,27324,31278,18566,3741,12954,12387,25822
25354,36253,18268,15760,23795,22279,25043,27324,31278,18566,3741,12954,12387,25822,21287
36253,18268,15760,23795,22279,25043,27324,31278,18566,3741,12954,12387,25822,21287,35417
18268,15760,23795,22279,25043,27324,31278,18566,3741,12954,12387,25822,21287,35417,17588
15760,23795,22279,25043,27324,31278,18566,3741,12954,12387,25822,21287,35417,17588,20111
23795,22279,25043,27324,31278,18566,3741,12954,12387,25822,21287,35417,17588,20111,18098
22279,25043,27324,31278,18566,3741,12954,12387,25822,21287,35417,17588,20111,18098,16511
25043,27324,31278,18566,3741,12954,12387,25822,21287,35417,17588,20111,18098,16511,21074
27324,31278,18566,3741,12954,12387,25822,21287,35417,17588,20111,18098,16511,21074,19345
31278,18566,3741,12954,12387,25822,21287,35417,17588,20111,18098,16511,21074,19345,33220
18566,3741,12954,12387,25822,21287,35417,17588,20111,18098,16511,21074,19345,33220,16057
3741,12954,12387,25822,21287,35417,17588,20111,18098,16511,21074,19345,33220,16057,11650
12954,12387,25822,21287,35417,17588,20111,18098,16511,21074,19345,33220,16057,11650,26460
12387,25822,21287,35417,17588,20111,18098,16511,21074,19345,33220,16057,11650,26460,21358
25822,21287,35417,17588,20111,18098,16511,21074,19345,33220,16057,11650,26460,21358,20933
21287,35417,17588,20111,18098,16511,21074,19345,33220,16057,11650,26460,21358,20933,23781
35417,17588,20111,18098,16511,21074,19345,33220,16057,11650,26460,21358,20933,23781,35289
17588,20111,18098,16511,21074,19345,33220,16057,11650,26460,21358,20933,23781,35289,19033
20111,18098,16511,21074,19345,33220,16057,11650,26460,21358,20933,23781,35289,19033,15448
18098,16511,21074,19345,33220,16057,11650,26460,21358,20933,23781,35289,19033,15448,26927
16511,21074,19345,33220,16057,11650,26460,21358,20933,23781,35289,19033,15448,26927,23172
21074,19345,33220,16057,11650,26460,21358,20933,23781,35289,19033,15448,26927,23172,24901
19345,33220,16057,11650,26460,21358,20933,23781,35289,19033,15448,26927,23172,24901,28019
33220,16057,11650,26460,21358,20933,23781,35289,19033,15448,26927,23172,24901,28019,28614
16057,11650,26460,21358,20933,23781,35289,19033,15448,26927,23172,24901,28019,28614,14484
11650,26460,21358,20933,23781,35289,19033,15448,26927,23172,24901,28019,28614,14484,12273
26460,21358,20933,23781,35289,19033,15448,26927,23172,24901,28019,28614,14484,12273,17021
21358,20933,23781,35289,19033,15448,26927,23172,24901,28019,28614,14484,12273,17021,16284
20933,23781,35289,19033,15448,26927,23172,24901,28019,28614,14484,12273,17021,16284,17871
23781,35289,19033,15448,26927,23172,24901,28019,28614,14484,12273,17021,16284,17871,23469
35289,19033,15448,26927,23172,24901,28019,28614,14484,12273,17021,16284,17871,23469,10431
19033,15448,26927,23172,24901,28019,28614,14484,12273,17021,16284,17871,23469,10431,10261
15448,26927,23172,24901,28019,28614,14484,12273,17021,16284,17871,23469,10431,10261,9170
26927,23172,24901,28019,28614,14484,12273,17021,16284,17871,23469,10431,10261,9170,8234
23172,24901,28019,28614,14484,12273,17021,16284,17871,23469,10431,10261,9170,8234,17333
24901,28019,28614,14484,12273,17021,16284,17871,23469,10431,10261,9170,8234,17333,11083
28019,28614,14484,12273,17021,16284,17871,23469,10431,10261,9170,8234,17333,11083,15958
28614,14484,12273,17021,16284,17871,23469,10431,10261,9170,8234,17333,11083,15958,19303
14484,12273,17021,16284,17871,23469,10431,10261,9170,8234,17333,11083,15958,19303,8489
12273,17021,16284,17871,23469,10431,10261,9170,8234,17333,11083,15958,19303,8489,9949
17021,16284,17871,23469,10431,10261,9170,8234,17333,11083,15958,19303,8489,9949,17248
16284,17871,23469,10431,10261,9170,8234,17333,11083,15958,19303,8489,9949,17248,14626
17871,23469,10431,10261,9170,8234,17333,11083,15958,19303,8489,9949,17248,14626,16185
23469,10431,10261,9170,8234,17333,11083,15958,19303,8489,9949,17248,14626,16185,15788
10431,10261,9170,8234,17333,11083,15958,19303,8489,9949,17248,14626,16185,15788,21670
10261,9170,8234,17333,11083,15958,19303,8489,9949,17248,14626,16185,15788,21670,11451
9170,8234,17333,11083,15958,19303,8489,9949,17248,14626,16185,15788,21670,11451,12032
8234,17333,11083,15958,19303,8489,9949,17248,14626,16185,15788,21670,11451,12032,21273
17333,11083,15958,19303,8489,9949,17248,14626,16185,15788,21670,11451,12032,21273,21528
11083,15958,19303,8489,9949,17248,14626,16185,15788,21670,11451,12032,21273,21528,24391
15958,19303,8489,9949,17248,14626,16185,15788,21670,11451,12032,21273,21528,24391,25893
19303,8489,9949,17248,14626,16185,15788,21670,11451,12032,21273,21528,24391,25893,32370
8489,9949,17248,14626,16185,15788,21670,11451,12032,21273,21528,24391,25893,32370,14187
9949,17248,14626,16185,15788,21670,11451,12032,21273,21528,24391,25893,32370,14187,15575
17248,14626,16185,15788,21670,11451,12032,21273,21528,24391,25893,32370,14187,15575,23965
14626,16185,15788,21670,11451,12032,21273,21528,24391,25893,32370,14187,15575,23965,23058
16185,15788,21670,11451,12032,21273,21528,24391,25893,32370,14187,15575,23965,23058,23200
15788,21670,11451,12032,21273,21528,24391,25893,32370,14187,15575,23965,23058,23200,24887
21670,11451,12032,21273,21528,24391,25893,32370,14187,15575,23965,23058,23200,24887,32497
11451,12032,21273,21528,24391,25893,32370,14187,15575,23965,23058,23200,24887,32497,15986
12032,21273,21528,24391,25893,32370,14187,15575,23965,23058,23200,24887,32497,15986,18396
21273,21528,24391,25893,32370,14187,15575,23965,23058,23200,24887,32497,15986,18396,28090
21528,24391,25893,32370,14187,15575,23965,23058,23200,24887,32497,15986,18396,28090,21273
24391,25893,32370,14187,15575,23965,23058,23200,24887,32497,15986,18396,28090,21273,26417
25893,32370,14187,15575,23965,23058,23200,24887,32497,15986,18396,28090,21273,26417,0000
32370,14187,15575,23965,23058,23200,24887,32497,15986,18396,28090,21273,26417,0000,34340
14187,15575,23965,23058,23200,24887,32497,15986,18396,28090,21273,26417,0000,34340,21131
15575,23965,23058,23200,24887,32497,15986,18396,28090,21273,26417,0000,34340,21131,16397
23965,23058,23200,24887,32497,15986,18396,28090,21273,26417,0000,34340,21131,16397,13690
23058,23200,24887,32497,15986,18396,28090,21273,26417,0000,34340,21131,16397,13690,31037
23200,24887,32497,15986,18396,28090,21273,26417,0000,34340,21131,16397,13690,31037,24688
24887,32497,15986,18396,28090,21273,26417,0000,34340,21131,16397,13690,31037,24688,24830
32497,15986,18396,28090,21273,26417,0000,34340,21131,16397,13690,31037,24688,24830,31448
15986,18396,28090,21273,26417,0000,34340,21131,16397,13690,31037,24688,24830,31448,17191
18396,28090,21273,26417,0000,34340,21131,16397,13690,31037,24688,24830,31448,17191,14016
28090,21273,26417,0000,34340,21131,16397,13690,31037,24688,24830,31448,17191,14016,23356
21273,26417,0000,34340,21131,16397,13690,31037,24688,24830,31448,17191,14016,23356,18948
26417,0000,34340,21131,16397,13690,31037,24688,24830,31448,17191,14016,23356,18948,21032
0000,34340,21131,16397,13690,31037,24688,24830,31448,17191,14016,23356,18948,21032,27055
34340,21131,16397,13690,31037,24688,24830,31448,17191,14016,23356,18948,21032,27055,31817
21131,16397,13690,31037,24688,24830,31448,17191,14016,23356,18948,21032,27055,31817,19459
16397,13690,31037,24688,24830,31448,17191,14016,23356,18948,21032,27055,31817,19459,15490
13690,31037,24688,24830,31448,17191,14016,23356,18948,21032,27055,31817,19459,15490,20366
31037,24688,24830,31448,17191,14016,23356,18948,21032,27055,31817,19459,15490,20366,19076
24688,24830,31448,17191,14016,23356,18948,21032,27055,31817,19459,15490,20366,19076,17914
24830,31448,17191,14016,23356,18948,21032,27055,31817,19459,15490,20366,19076,17914,23427
31448,17191,14016,23356,18948,21032,27055,31817,19459,15490,20366,19076,17914,23427,31193
17191,14016,23356,18948,21032,27055,31817,19459,15490,20366,19076,17914,23427,31193,17786
14016,23356,18948,21032,27055,31817,19459,15490,20366,19076,17914,23427,31193,17786,14101
23356,18948,21032,27055,31817,19459,15490,20366,19076,17914,23427,31193,17786,14101,12897
18948,21032,27055,31817,19459,15490,20366,19076,17914,23427,31193,17786,14101,12897,22236
21032,27055,31817,19459,15490,20366,19076,17914,23427,31193,17786,14101,12897,22236,18807
27055,31817,19459,15490,20366,19076,17914,23427,31193,17786,14101,12897,22236,18807,16738
31817,19459,15490,20366,19076,17914,23427,31193,17786,14101,12897,22236,18807,16738,28472
19459,15490,20366,19076,17914,23427,31193,17786,14101,12897,22236,18807,16738,28472,18807
15490,20366,19076,17914,23427,31193,17786,14101,12897,22236,18807,16738,28472,18807,16539
20366,19076,17914,23427,31193,17786,14101,12897,22236,18807,16738,28472,18807,16539,24546
19076,17914,23427,31193,17786,14101,12897,22236,18807,16738,28472,18807,16539,24546,23866
17914,23427,31193,17786,14101,12897,22236,18807,16738,28472,18807,16539,24546,23866,25652
23427,31193,17786,14101,12897,22236,18807,16738,28472,18807,16539,24546,23866,25652,24362
31193,17786,14101,12897,22236,18807,16738,28472,18807,16539,24546,23866,25652,24362,31236
17786,14101,12897,22236,18807,16738,28472,18807,16539,24546,23866,25652,24362,31236,18878
14101,12897,22236,18807,16738,28472,18807,16539,24546,23866,25652,24362,31236,18878,13322
12897,22236,18807,16738,28472,18807,16539,24546,23866,25652,24362,31236,18878,13322,15519
22236,18807,16738,28472,18807,16539,24546,23866,25652,24362,31236,18878,13322,15519,24065
18807,16738,28472,18807,16539,24546,23866,25652,24362,31236,18878,13322,15519,24065,25779
16738,28472,18807,16539,24546,23866,25652,24362,31236,18878,13322,15519,24065,25779,24008
28472,18807,16539,24546,23866,25652,24362,31236,18878,13322,15519,24065,25779,24008,31718
18807,16539,24546,23866,25652,24362,31236,18878,13322,15519,24065,25779,24008,31718,0000
16539,24546,23866,25652,24362,31236,18878,13322,15519,24065,25779,24008,31718,0000,0000
24546,23866,25652,24362,31236,18878,13322,15519,24065,25779,24008,31718,0000,0000,20437
23866,25652,24362,31236,18878,13322,15519,24065,25779,24008,31718,0000,0000,20437,16553
25652,24362,31236,18878,13322,15519,24065,25779,24008,31718,0000,0000,20437,16553,18566
24362,31236,18878,13322,15519,24065,25779,24008,31718,0000,0000,20437,16553,18566,22137
31236,18878,13322,15519,24065,25779,24008,31718,0000,0000,20437,16553,18566,22137,24575
18878,13322,15519,24065,25779,24008,31718,0000,0000,20437,16553,18566,22137,24575,0000
13322,15519,24065,25779,24008,31718,0000,0000,20437,16553,18566,22137,24575,0000,0000
15519,24065,25779,24008,31718,0000,0000,20437,16553,18566,22137,24575,0000,0000,0000
24065,25779,24008,31718,0000,0000,20437,16553,18566,22137,24575,0000,0000,0000,9708
25779,24008,31718,0000,0000,20437,16553,18566,22137,24575,0000,0000,0000,9708,14782
24008,31718,0000,0000,20437,16553,18566,22137,24575,0000,0000,0000,9708,14782,19515
31718,0000,0000,20437,16553,18566,22137,24575,0000,0000,0000,9708,14782,19515,24235
0000,0000,20437,16553,18566,22137,24575,0000,0000,0000,9708,14782,19515,24235,13563
0000,20437,16553,18566,22137,24575,0000,0000,0000,9708,14782,19515,24235,13563,10473
20437,16553,18566,22137,24575,0000,0000,0000,9708,14782,19515,24235,13563,10473,19770
16553,18566,22137,24575,0000,0000,0000,9708,14782,19515,24235,13563,10473,19770,17942
18566,22137,24575,0000,0000,0000,9708,14782,19515,24235,13563,10473,19770,17942,17503
22137,24575,0000,0000,0000,9708,14782,19515,24235,13563,10473,19770,17942,17503,19388
24575,0000,0000,0000,9708,14782,19515,24235,13563,10473,19770,17942,17503,19388,24787
0000,0000,0000,9708,14782,19515,24235,13563,10473,19770,17942,17503,19388,24787,13251
0000,0000,9708,14782,19515,24235,13563,10473,19770,17942,17503,19388,24787,13251,12415
0000,9708,14782,19515,24235,13563,10473,19770,17942,17503,19388,24787,13251,12415,20564
9708,14782,19515,24235,13563,10473,19770,17942,17503,19388,24787,13251,12415,20564,17857
14782,19515,24235,13563,10473,19770,17942,17503,19388,24787,13251,12415,20564,17857,18580
19515,24235,13563,10473,19770,17942,17503,19388,24787,13251,12415,20564,17857,18580,22520
24235,13563,10473,19770,17942,17503,19388,24787,13251,12415,20564,17857,18580,22520,21783
13563,10473,19770,17942,17503,19388,24787,13251,12415,20564,17857,18580,22520,21783,15249
10473,19770,17942,17503,19388,24787,13251,12415,20564,17857,18580,22520,21783,15249,11621
19770,17942,17503,19388,24787,13251,12415,20564,17857,18580,22520,21783,15249,11621,15420
17942,17503,19388,24787,13251,12415,20564,17857,18580,22520,21783,15249,11621,15420,19969
17503,19388,24787,13251,12415,20564,17857,18580,22520,21783,15249,11621,15420,19969,16709
19388,24787,13251,12415,20564,17857,18580,22520,21783,15249,11621,15420,19969,16709,19260
24787,13251,12415,20564,17857,18580,22520,21783,15249,11621,15420,19969,16709,19260,27154
13251,12415,20564,17857,18580,22520,21783,15249,11621,15420,19969,16709,19260,27154,13875
12415,20564,17857,18580,22520,21783,15249,11621,15420,19969,16709,19260,27154,13875,12500
20564,17857,18580,22520,21783,15249,11621,15420,19969,16709,19260,27154,13875,12500,16851
17857,18580,22520,21783,15249,11621,15420,19969,16709,19260,27154,13875,12500,16851,15320
18580,22520,21783,15249,11621,15420,19969,16709,19260,27154,13875,12500,16851,15320,16086
22520,21783,15249,11621,15420,19969,16709,19260,27154,13875,12500,16851,15320,16086,16766
21783,15249,11621,15420,19969,16709,19260,27154,13875,12500,16851,15320,16086,16766,23469
15249,11621,15420,19969,16709,19260,27154,13875,12500,16851,15320,16086,16766,23469,12911
11621,15420,19969,16709,19260,27154,13875,12500,16851,15320,16086,16766,23469,12911,12089
15420,19969,16709,19260,27154,13875,12500,16851,15320,16086,16766,23469,12911,12089,17971
19969,16709,19260,27154,13875,12500,16851,15320,16086,16766,23469,12911,12089,17971,16156
16709,19260,27154,13875,12500,16851,15320,16086,16766,23469,12911,12089,17971,16156,14923
19260,27154,13875,12500,16851,15320,16086,16766,23469,12911,12089,17971,16156,14923,18183
27154,13875,12500,16851,15320,16086,16766,23469,12911,12089,17971,16156,14923,18183,22080
13875,12500,16851,15320,16086,16766,23469,12911,12089,17971,16156,14923,18183,22080,12231
12500,16851,15320,16086,16766,23469,12911,12089,17971,16156,14923,18183,22080,12231,13308
16851,15320,16086,16766,23469,12911,12089,17971,16156,14923,18183,22080,12231,13308,17928
15320,16086,16766,23469,12911,12089,17971,16156,14923,18183,22080,12231,13308,17928,12783
16086,16766,23469,12911,12089,17971,16156,14923,18183,22080,12231,13308,17928,12783,13350
16766,23469,12911,12089,17971,16156,14923,18183,22080,12231,13308,17928,12783,13350,15816
23469,12911,12089,17971,16156,14923,18183,22080,12231,13308,17928,12783,13350,15816,19246
12911,12089,17971,16156,14923,18183,22080,12231,13308,17928,12783,13350,15816,19246,12287
12089,17971,16156,14923,18183,22080,12231,13308,17928,12783,13350,15816,19246,12287,10828
17971,16156,14923,18183,22080,12231,13308,17928,12783,13350,15816,19246,12287,10828,13535
16156,14923,18183,22080,12231,13308,17928,12783,13350,15816,19246,12287,10828,13535,13109
14923,18183,22080,12231,13308,17928,12783,13350,15816,19246,12287,10828,13535,13109,12146
18183,22080,12231,13308,17928,12783,13350,15816,19246,12287,10828,13535,13109,12146,15816
22080,12231,13308,17928,12783,13350,15816,19246,12287,10828,13535,13109,12146,15816,24192
12231,13308,17928,12783,13350,15816,19246,12287,10828,13535,13109,12146,15816,24192,15434
13308,17928,12783,13350,15816,19246,12287,10828,13535,13109,12146,15816,24192,15434,10346
17928,12783,13350,15816,19246,12287,10828,13535,13109,12146,15816,24192,15434,10346,16114
12783,13350,15816,19246,12287,10828,13535,13109,12146,15816,24192,15434,10346,16114,13081
13350,15816,19246,12287,10828,13535,13109,12146,15816,24192,15434,10346,16114,13081,5244
15816,19246,12287,10828,13535,13109,12146,15816,24192,15434,10346,16114,13081,5244,4039
19246,12287,10828,13535,13109,12146,15816,24192,15434,10346,16114,13081,5244,4039,26105
12287,10828,13535,13109,12146,15816,24192,15434,10346,16114,13081,5244,4039,26105,22066
10828,13535,13109,12146,15816,24192,15434,10346,16114,13081,5244,4039,26105,22066,25765
13535,13109,12146,15816,24192,15434,10346,16114,13081,5244,4039,26105,22066,25765,26488
13109,12146,15816,24192,15434,10346,16114,13081,5244,4039,26105,22066,25765,26488,21641
12146,15816,24192,15434,10346,16114,13081,5244,4039,26105,22066,25765,26488,21641,15930
15816,24192,15434,10346,16114,13081,5244,4039,26105,22066,25765,26488,21641,15930,15717
24192,15434,10346,16114,13081,5244,4039,26105,22066,25765,26488,21641,15930,15717,24178
15434,10346,16114,13081,5244,4039,26105,22066,25765,26488,21641,15930,15717,24178,14187
10346,16114,13081,5244,4039,26105,22066,25765,26488,21641,15930,15717,24178,14187,12868
16114,13081,5244,4039,26105,22066,25765,26488,21641,15930,15717,24178,14187,12868,15944
13081,5244,4039,26105,22066,25765,26488,21641,15930,15717,24178,14187,12868,15944,14059
5244,4039,26105,22066,25765,26488,21641,15930,15717,24178,14187,12868,15944,14059,14073
4039,26105,22066,25765,26488,21641,15930,15717,24178,14187,12868,15944,14059,14073,15561
26105,22066,25765,26488,21641,15930,15717,24178,14187,12868,15944,14059,14073,15561,22208
22066,25765,26488,21641,15930,15717,24178,14187,12868,15944,14059,14073,15561,22208,9751
25765,26488,21641,15930,15717,24178,14187,12868,15944,14059,14073,15561,22208,9751,10119
26488,21641,15930,15717,24178,14187,12868,15944,14059,14073,15561,22208,9751,10119,14895
21641,15930,15717,24178,14187,12868,15944,14059,14073,15561,22208,9751,10119,14895,16199
15930,15717,24178,14187,12868,15944,14059,14073,15561,22208,9751,10119,14895,16199,15391
15717,24178,14187,12868,15944,14059,14073,15561,22208,9751,10119,14895,16199,15391,13634
24178,14187,12868,15944,14059,14073,15561,22208,9751,10119,14895,16199,15391,13634,21769
14187,12868,15944,14059,14073,15561,22208,9751,10119,14895,16199,15391,13634,21769,14116
12868,15944,14059,14073,15561,22208,9751,10119,14895,16199,15391,13634,21769,14116,13279
15944,14059,14073,15561,22208,9751,10119,14895,16199,15391,13634,21769,14116,13279,19558
14059,14073,15561,22208,9751,10119,14895,16199,15391,13634,21769,14116,13279,19558,18566
14073,15561,22208,9751,10119,14895,16199,15391,13634,21769,14116,13279,19558,18566,15136
15561,22208,9751,10119,14895,16199,15391,13634,21769,14116,13279,19558,18566,15136,18821
22208,9751,10119,14895,16199,15391,13634,21769,14116,13279,19558,18566,15136,18821,26105
9751,10119,14895,16199,15391,13634,21769,14116,13279,19558,18566,15136,18821,26105,14923
10119,14895,16199,15391,13634,21769,14116,13279,19558,18566,15136,18821,26105,14923,14045
14895,16199,15391,13634,21769,14116,13279,19558,18566,15136,18821,26105,14923,14045,28827
16199,15391,13634,21769,14116,13279,19558,18566,15136,18821,26105,14923,14045,28827,22619
15391,13634,21769,14116,13279,19558,18566,15136,18821,26105,14923,14045,28827,22619,23597
13634,21769,14116,13279,19558,18566,15136,18821,26105,14923,14045,28827,22619,23597,31916
21769,14116,13279,19558,18566,15136,18821,26105,14923,14045,28827,22619,23597,31916,29450
14116,13279,19558,18566,15136,18821,26105,14923,14045,28827,22619,23597,31916,29450,20479
13279,19558,18566,15136,18821,26105,14923,14045,28827,22619,23597,31916,29450,20479,20777
19558,18566,15136,18821,26105,14923,14045,28827,22619,23597,31916,29450,20479,20777,29535
18566,15136,18821,26105,14923,14045,28827,22619,23597,31916,29450,20479,20777,29535,26899
15136,18821,26105,14923,14045,28827,22619,23597,31916,29450,20479,20777,29535,26899,27778
18821,26105,14923,14045,28827,22619,23597,31916,29450,20479,20777,29535,26899,27778,22123
26105,14923,14045,28827,22619,23597,31916,29450,20479,20777,29535,26899,27778,22123,35332
14923,14045,28827,22619,23597,31916,29450,20479,20777,29535,26899,27778,22123,35332,18793
14045,28827,22619,23597,31916,29450,20479,20777,29535,26899,27778,22123,35332,18793,17687
28827,22619,23597,31916,29450,20479,20777,29535,26899,27778,22123,35332,18793,17687,19189
22619,23597,31916,29450,20479,20777,29535,26899,27778,22123,35332,18793,17687,19189,28812
23597,31916,29450,20479,20777,29535,26899,27778,22123,35332,18793,17687,19189,28812,25978
31916,29450,20479,20777,29535,26899,27778,22123,35332,18793,17687,19189,28812,25978,27523
29450,20479,20777,29535,26899,27778,22123,35332,18793,17687,19189,28812,25978,27523,32823
20479,20777,29535,26899,27778,22123,35332,18793,17687,19189,28812,25978,27523,32823,19444
20777,29535,26899,27778,22123,35332,18793,17687,19189,28812,25978,27523,32823,19444,18863
29535,26899,27778,22123,35332,18793,17687,19189,28812,25978,27523,32823,19444,18863,25581
26899,27778,22123,35332,18793,17687,19189,28812,25978,27523,32823,19444,18863,25581,24065
27778,22123,35332,18793,17687,19189,28812,25978,27523,32823,19444,18863,25581,24065,26601
22123,35332,18793,17687,19189,28812,25978,27523,32823,19444,18863,25581,24065,26601,26601
35332,18793,17687,19189,28812,25978,27523,32823,19444,18863,25581,24065,26601,26601,37287
18793,17687,19189,28812,25978,27523,32823,19444,18863,25581,24065,26601,26601,37287,10473
17687,19189,28812,25978,27523,32823,19444,18863,25581,24065,26601,26601,37287,10473,16553
19189,28812,25978,27523,32823,19444,18863,25581,24065,26601,26601,37287,10473,16553,22463
28812,25978,27523,32823,19444,18863,25581,24065,26601,26601,37287,10473,16553,22463,24532
25978,27523,32823,19444,18863,25581,24065,26601,26601,37287,10473,16553,22463,24532,26148
27523,32823,19444,18863,25581,24065,26601,26601,37287,10473,16553,22463,24532,26148,25383
32823,19444,18863,25581,24065,26601,26601,37287,10473,16553,22463,24532,26148,25383,30740
19444,18863,25581,24065,26601,26601,37287,10473,16553,22463,24532,26148,25383,30740,21528
18863,25581,24065,26601,26601,37287,10473,16553,22463,24532,26148,25383,30740,21528,18396
25581,24065,26601,26601,37287,10473,16553,22463,24532,26148,25383,30740,21528,18396,26885
24065,26601,26601,37287,10473,16553,22463,24532,26148,25383,30740,21528,18396,26885,22803
26601,26601,37287,10473,16553,22463,24532,26148,25383,30740,21528,18396,26885,22803,26304
26601,37287,10473,16553,22463,24532,26148,25383,30740,21528,18396,26885,22803,26304,29748
37287,10473,16553,22463,24532,26148,25383,30740,21528,18396,26885,22803,26304,29748,35771
10473,16553,22463,24532,26148,25383,30740,21528,18396,26885,22803,26304,29748,35771,21457
16553,22463,24532,26148,25383,30740,21528,18396,26885,22803,26304,29748,35771,21457,17177
22463,24532,26148,25383,30740,21528,18396,26885,22803,26304,29748,35771,21457,17177,25496
24532,26148,25383,30740,21528,18396,26885,22803,26304,29748,35771,21457,17177,25496,24291
26148,25383,30740,21528,18396,26885,22803,26304,29748,35771,21457,17177,25496,24291,22534
25383,30740,21528,18396,26885,22803,26304,29748,35771,21457,17177,25496,24291,22534,23158
30740,21528,18396,26885,22803,26304,29748,35771,21457,17177,25496,24291,22534,23158,34538
21528,18396,26885,22803,26304,29748,35771,21457,17177,25496,24291,22534,23158,34538,18707
18396,26885,22803,26304,29748,35771,21457,17177,25496,24291,22534,23158,34538,18707,19473
26885,22803,26304,29748,35771,21457,17177,25496,24291,22534,23158,34538,18707,19473,20692
22803,26304,29748,35771,21457,17177,25496,24291,22534,23158,34538,18707,19473,20692,19586
26304,29748,35771,21457,17177,25496,24291,22534,23158,34538,18707,19473,20692,19586,5825
29748,35771,21457,17177,25496,24291,22534,23158,34538,18707,19473,20692,19586,5825,13138
35771,21457,17177,25496,24291,22534,23158,34538,18707,19473,20692,19586,5825,13138,0000
21457,17177,25496,24291,22534,23158,34538,18707,19473,20692,19586,5825,13138,0000,0000
17177,25496,24291,22534,23158,34538,18707,19473,20692,19586,5825,13138,0000,0000,18467
25496,24291,22534,23158,34538,18707,19473,20692,19586,5825,13138,0000,0000,18467,22959
24291,22534,23158,34538,18707,19473,20692,19586,5825,13138,0000,0000,18467,22959,21372
22534,23158,34538,18707,19473,20692,19586,5825,13138,0000,0000,18467,22959,21372,20677
23158,34538,18707,19473,20692,19586,5825,13138,0000,0000,18467,22959,21372,20677,22619
34538,18707,19473,20692,19586,5825,13138,0000,0000,18467,22959,21372,20677,22619,35020
18707,19473,20692,19586,5825,13138,0000,0000,18467,22959,21372,20677,22619,35020,18424
19473,20692,19586,5825,13138,0000,0000,18467,22959,21372,20677,22619,35020,18424,18722
20692,19586,5825,13138,0000,0000,18467,22959,21372,20677,22619,35020,18424,18722,22619
19586,5825,13138,0000,0000,18467,22959,21372,20677,22619,35020,18424,18722,22619,24022
5825,13138,0000,0000,18467,22959,21372,20677,22619,35020,18424,18722,22619,24022,14725
13138,0000,0000,18467,22959,21372,20677,22619,35020,18424,18722,22619,24022,14725,24419
0000,0000,18467,22959,21372,20677,22619,35020,18424,18722,22619,24022,14725,24419,33631
0000,18467,22959,21372,20677,22619,35020,18424,18722,22619,24022,14725,24419,33631,22917
18467,22959,21372,20677,22619,35020,18424,18722,22619,24022,14725,24419,33631,22917,21698
22959,21372,20677,22619,35020,18424,18722,22619,24022,14725,24419,33631,22917,21698,27594
21372,20677,22619,35020,18424,18722,22619,24022,14725,24419,33631,22917,21698,27594,22577
20677,22619,35020,18424,18722,22619,24022,14725,24419,33631,22917,21698,27594,22577,23540
22619,35020,18424,18722,22619,24022,14725,24419,33631,22917,21698,27594,22577,23540,24079
35020,18424,18722,22619,24022,14725,24419,33631,22917,21698,27594,22577,23540,24079,30669
18424,18722,22619,24022,14725,24419,33631,22917,21698,27594,22577,23540,24079,30669,2253
18722,22619,24022,14725,24419,33631,22917,21698,27594,22577,23540,24079,30669,2253,0000
22619,24022,14725,24419,33631,22917,21698,27594,22577,23540,24079,30669,2253,0000,14427
24022,14725,24419,33631,22917,21698,27594,22577,23540,24079,30669,2253,0000,14427,28486
14725,24419,33631,22917,21698,27594,22577,23540,24079,30669,2253,0000,14427,28486,24759
24419,33631,22917,21698,27594,22577,23540,24079,30669,2253,0000,14427,28486,24759,25992
33631,22917,21698,27594,22577,23540,24079,30669,2253,0000,14427,28486,24759,25992,30711
22917,21698,27594,22577,23540,24079,30669,2253,0000,14427,28486,24759,25992,30711,0000
21698,27594,22577,23540,24079,30669,2253,0000,14427,28486,24759,25992,30711,0000,0000
27594,22577,23540,24079,30669,2253,0000,14427,28486,24759,25992,30711,0000,0000,22336
22577,23540,24079,30669,2253,0000,14427,28486,24759,25992,30711,0000,0000,22336,16397
23540,24079,30669,2253,0000,14427,28486,24759,25992,30711,0000,0000,22336,16397,27225
24079,30669,2253,0000,14427,28486,24759,25992,30711,0000,0000,22336,16397,27225,31165
30669,2253,0000,14427,28486,24759,25992,30711,0000,0000,22336,16397,27225,31165,40632
2253,0000,14427,28486,24759,25992,30711,0000,0000,22336,16397,27225,31165,40632,18892
0000,14427,28486,24759,25992,30711,0000,0000,22336,16397,27225,31165,40632,18892,14144
14427,28486,24759,25992,30711,0000,0000,22336,16397,27225,31165,40632,18892,14144,8348
28486,24759,25992,30711,0000,0000,22336,16397,27225,31165,40632,18892,14144,8348,13095
24759,25992,30711,0000,0000,22336,16397,27225,31165,40632,18892,14144,8348,13095,17829
25992,30711,0000,0000,22336,16397,27225,31165,40632,18892,14144,8348,13095,17829,3061
30711,0000,0000,22336,16397,27225,31165,40632,18892,14144,8348,13095,17829,3061,3543
0000,0000,22336,16397,27225,31165,40632,18892,14144,8348,13095,17829,3061,3543,8546
0000,22336,16397,27225,31165,40632,18892,14144,8348,13095,17829,3061,3543,8546,8050
22336,16397,27225,31165,40632,18892,14144,8348,13095,17829,3061,3543,8546,8050,13336
16397,27225,31165,40632,18892,14144,8348,13095,17829,3061,3543,8546,8050,13336,9538
27225,31165,40632,18892,14144,8348,13095,17829,3061,3543,8546,8050,13336,9538,14810
31165,40632,18892,14144,8348,13095,17829,3061,3543,8546,8050,13336,9538,14810,9127
40632,18892,14144,8348,13095,17829,3061,3543,8546,8050,13336,9538,14810,9127,6845
18892,14144,8348,13095,17829,3061,3543,8546,8050,13336,9538,14810,9127,6845,5499
14144,8348,13095,17829,3061,3543,8546,8050,13336,9538,14810,9127,6845,5499,7440
8348,13095,17829,3061,3543,8546,8050,13336,9538,14810,9127,6845,5499,7440,16341
13095,17829,3061,3543,8546,8050,13336,9538,14810,9127,6845,5499,7440,16341,14739
17829,3061,3543,8546,8050,13336,9538,14810,9127,6845,5499,7440,16341,14739,11267
3061,3543,8546,8050,13336,9538,14810,9127,6845,5499,7440,16341,14739,11267,13520
3543,8546,8050,13336,9538,14810,9127,6845,5499,7440,16341,14739,11267,13520,13138
8546,8050,13336,9538,14810,9127,6845,5499,7440,16341,14739,11267,13520,13138,17092
8050,13336,9538,14810,9127,6845,5499,7440,16341,14739,11267,13520,13138,17092,14172
13336,9538,14810,9127,6845,5499,7440,16341,14739,11267,13520,13138,17092,14172,12202
9538,14810,9127,6845,5499,7440,16341,14739,11267,13520,13138,17092,14172,12202,19855
14810,9127,6845,5499,7440,16341,14739,11267,13520,13138,17092,14172,12202,19855,14626
9127,6845,5499,7440,16341,14739,11267,13520,13138,17092,14172,12202,19855,14626,21018
6845,5499,7440,16341,14739,11267,13520,13138,17092,14172,12202,19855,14626,21018,25482
5499,7440,16341,14739,11267,13520,13138,17092,14172,12202,19855,14626,21018,25482,15590
7440,16341,14739,11267,13520,13138,17092,14172,12202,19855,14626,21018,25482,15590,10289
16341,14739,11267,13520,13138,17092,14172,12202,19855,14626,21018,25482,15590,10289,20082
14739,11267,13520,13138,17092,14172,12202,19855,14626,21018,25482,15590,10289,20082,16922
11267,13520,13138,17092,14172,12202,19855,14626,21018,25482,15590,10289,20082,16922,17545
13520,13138,17092,14172,12202,19855,14626,21018,25482,15590,10289,20082,16922,17545,3175
13138,17092,14172,12202,19855,14626,21018,25482,15590,10289,20082,16922,17545,3175,34736
17092,14172,12202,19855,14626,21018,25482,15590,10289,20082,16922,17545,3175,34736,18793
14172,12202,19855,14626,21018,25482,15590,10289,20082,16922,17545,3175,34736,18793,14116
12202,19855,14626,21018,25482,15590,10289,20082,16922,17545,3175,34736,18793,14116,20026
19855,14626,21018,25482,15590,10289,20082,16922,17545,3175,34736,18793,14116,20026,21485
14626,21018,25482,15590,10289,20082,16922,17545,3175,34736,18793,14116,20026,21485,19770
21018,25482,15590,10289,20082,16922,17545,3175,34736,18793,14116,20026,21485,19770,24291
25482,15590,10289,20082,16922,17545,3175,34736,18793,14116,20026,21485,19770,24291,36536
15590,10289,20082,16922,17545,3175,34736,18793,14116,20026,21485,19770,24291,36536,22435
10289,20082,16922,17545,3175,34736,18793,14116,20026,21485,19770,24291,36536,22435,24731
20082,16922,17545,3175,34736,18793,14116,20026,21485,19770,24291,36536,22435,24731,28912
16922,17545,3175,34736,18793,14116,20026,21485,19770,24291,36536,22435,24731,28912,23016
17545,3175,34736,18793,14116,20026,21485,19770,24291,36536,22435,24731,28912,23016,21344
3175,34736,18793,14116,20026,21485,19770,24291,36536,22435,24731,28912,23016,21344,25383
34736,18793,14116,20026,21485,19770,24291,36536,22435,24731,28912,23016,21344,25383,31562
18793,14116,20026,21485,19770,24291,36536,22435,24731,28912,23016,21344,25383,31562,18169
14116,20026,21485,19770,24291,36536,22435,24731,28912,23016,21344,25383,31562,18169,19331
20026,21485,19770,24291,36536,22435,24731,28912,23016,21344,25383,31562,18169,19331,26998
21485,19770,24291,36536,22435,24731,28912,23016,21344,25383,31562,18169,19331,26998,21783
19770,24291,36536,22435,24731,28912,23016,21344,25383,31562,18169,19331,26998,21783,20607
24291,36536,22435,24731,28912,23016,21344,25383,31562,18169,19331,26998,21783,20607,23554
36536,22435,24731,28912,23016,21344,25383,31562,18169,19331,26998,21783,20607,23554,38194
22435,24731,28912,23016,21344,25383,31562,18169,19331,26998,21783,20607,23554,38194,18637
24731,28912,23016,21344,25383,31562,18169,19331,26998,21783,20607,23554,38194,18637,23484
28912,23016,21344,25383,31562,18169,19331,26998,21783,20607,23554,38194,18637,23484,22378
23016,21344,25383,31562,18169,19331,26998,21783,20607,23554,38194,18637,23484,22378,18183
21344,25383,31562,18169,19331,26998,21783,20607,23554,38194,18637,23484,22378,18183,21457
25383,31562,18169,19331,26998,21783,20607,23554,38194,18637,23484,22378,18183,21457,22350
31562,18169,19331,26998,21783,20607,23554,38194,18637,23484,22378,18183,21457,22350,33234
18169,19331,26998,21783,20607,23554,38194,18637,23484,22378,18183,21457,22350,33234,18722
19331,26998,21783,20607,23554,38194,18637,23484,22378,18183,21457,22350,33234,18722,19189
26998,21783,20607,23554,38194,18637,23484,22378,18183,21457,22350,33234,18722,19189,22888
21783,20607,23554,38194,18637,23484,22378,18183,21457,22350,33234,18722,19189,22888,23455
20607,23554,38194,18637,23484,22378,18183,21457,22350,33234,18722,19189,22888,23455,21273
23554,38194,18637,23484,22378,18183,21457,22350,33234,18722,19189,22888,23455,21273,25709
38194,18637,23484,22378,18183,21457,22350,33234,18722,19189,22888,23455,21273,25709,41596
18637,23484,22378,18183,21457,22350,33234,18722,19189,22888,23455,21273,25709,41596,21372
23484,22378,18183,21457,22350,33234,18722,19189,22888,23455,21273,25709,41596,21372,20862
22378,18183,21457,22350,33234,18722,19189,22888,23455,21273,25709,41596,21372,20862,27565
18183,21457,22350,33234,18722,19189,22888,23455,21273,25709,41596,21372,20862,27565,27353
21457,22350,33234,18722,19189,22888,23455,21273,25709,41596,21372,20862,27565,27353,24249
22350,33234,18722,19189,22888,23455,21273,25709,41596,21372,20862,27565,27353,24249,24079
33234,18722,19189,22888,23455,21273,25709,41596,21372,20862,27565,27353,24249,24079,33518
18722,19189,22888,23455,21273,25709,41596,21372,20862,27565,27353,24249,24079,33518,17701
19189,22888,23455,21273,25709,41596,21372,20862,27565,27353,24249,24079,33518,17701,18807
22888,23455,21273,25709,41596,21372,20862,27565,27353,24249,24079,33518,17701,18807,21032
23455,21273,25709,41596,21372,20862,27565,27353,24249,24079,33518,17701,18807,21032,22988
21273,25709,41596,21372,20862,27565,27353,24249,24079,33518,17701,18807,21032,22988,23654
25709,41596,21372,20862,27565,27353,24249,24079,33518,17701,18807,21032,22988,23654,25071
41596,21372,20862,27565,27353,24249,24079,33518,17701,18807,21032,22988,23654,25071,39172
21372,20862,27565,27353,24249,24079,33518,17701,18807,21032,22988,23654,25071,39172,19303
20862,27565,27353,24249,24079,33518,17701,18807,21032,22988,23654,25071,39172,19303,21953
27565,27353,24249,24079,33518,17701,18807,21032,22988,23654,25071,39172,19303,21953,24107
27353,24249,24079,33518,17701,18807,21032,22988,23654,25071,39172,19303,21953,24107,26729
24249,24079,33518,17701,18807,21032,22988,23654,25071,39172,19303,21953,24107,26729,22307
24079,33518,17701,18807,21032,22988,23654,25071,39172,19303,21953,24107,26729,22307,24532
33518,17701,18807,21032,22988,23654,25071,39172,19303,21953,24107,26729,22307,24532,35275
17701,18807,21032,22988,23654,25071,39172,19303,21953,24107,26729,22307,24532,35275,19331
18807,21032,22988,23654,25071,39172,19303,21953,24107,26729,22307,24532,35275,19331,19459
21032,22988,23654,25071,39172,19303,21953,24107,26729,22307,24532,35275,19331,19459,19955
22988,23654,25071,39172,19303,21953,24107,26729,22307,24532,35275,19331,19459,19955,18835
23654,25071,39172,19303,21953,24107,26729,22307,24532,35275,19331,19459,19955,18835,23951
25071,39172,19303,21953,24107,26729,22307,24532,35275,19331,19459,19955,18835,23951,27154
39172,19303,21953,24107,26729,22307,24532,35275,19331,19459,19955,18835,23951,27154,35785
19303,21953,24107,26729,22307,24532,35275,19331,19459,19955,18835,23951,27154,35785,19983
21953,24107,26729,22307,24532,35275,19331,19459,19955,18835,23951,27154,35785,19983,16652
24107,26729,22307,24532,35275,19331,19459,19955,18835,23951,27154,35785,19983,16652,16185
26729,22307,24532,35275,19331,19459,19955,18835,23951,27154,35785,19983,16652,16185,17574
22307,24532,35275,19331,19459,19955,18835,23951,27154,35785,19983,16652,16185,17574,17871
24532,35275,19331,19459,19955,18835,23951,27154,35785,19983,16652,16185,17574,17871,19728
35275,19331,19459,19955,18835,23951,27154,35785,19983,16652,16185,17574,17871,19728,26006
19331,19459,19955,18835,23951,27154,35785,19983,16652,16185,17574,17871,19728,26006,15887
19459,19955,18835,23951,27154,35785,19983,16652,16185,17574,17871,19728,26006,15887,17730
19955,18835,23951,27154,35785,19983,16652,16185,17574,17871,19728,26006,15887,17730,17645
18835,23951,27154,35785,19983,16652,16185,17574,17871,19728,26006,15887,17730,17645,15164
23951,27154,35785,19983,16652,16185,17574,17871,19728,26006,15887,17730,17645,15164,17106
27154,35785,19983,16652,16185,17574,17871,19728,26006,15887,17730,17645,15164,17106,20677
35785,19983,16652,16185,17574,17871,19728,26006,15887,17730,17645,15164,17106,20677,15944
19983,16652,16185,17574,17871,19728,26006,15887,17730,17645,15164,17106,20677,15944,18424
16652,16185,17574,17871,19728,26006,15887,17730,17645,15164,17106,20677,15944,18424,16964
16185,17574,17871,19728,26006,15887,17730,17645,15164,17106,20677,15944,18424,16964,11026
17574,17871,19728,26006,15887,17730,17645,15164,17106,20677,15944,18424,16964,11026,15023
17871,19728,26006,15887,17730,17645,15164,17106,20677,15944,18424,16964,11026,15023,16454
19728,26006,15887,17730,17645,15164,17106,20677,15944,18424,16964,11026,15023,16454,21783
26006,15887,17730,17645,15164,17106,20677,15944,18424,16964,11026,15023,16454,21783,24362
15887,17730,17645,15164,17106,20677,15944,18424,16964,11026,15023,16454,21783,24362,17418
17730,17645,15164,17106,20677,15944,18424,16964,11026,15023,16454,21783,24362,17418,17517
17645,15164,17106,20677,15944,18424,16964,11026,15023,16454,21783,24362,17418,17517,25439
15164,17106,20677,15944,18424,16964,11026,15023,16454,21783,24362,17418,17517,25439,19700
17106,20677,15944,18424,16964,11026,15023,16454,21783,24362,17418,17517,25439,19700,20607
20677,15944,18424,16964,11026,15023,16454,21783,24362,17418,17517,25439,19700,20607,21755
15944,18424,16964,11026,15023,16454,21783,24362,17418,17517,25439,19700,20607,21755,32455
18424,16964,11026,15023,16454,21783,24362,17418,17517,25439,19700,20607,21755,32455,17701
16964,11026,15023,16454,21783,24362,17418,17517,25439,19700,20607,21755,32455,17701,22038
11026,15023,16454,21783,24362,17418,17517,25439,19700,20607,21755,32455,17701,22038,23413
15023,16454,21783,24362,17418,17517,25439,19700,20607,21755,32455,17701,22038,23413,21386
16454,21783,24362,17418,17517,25439,19700,20607,21755,32455,17701,22038,23413,21386,23810
21783,24362,17418,17517,25439,19700,20607,21755,32455,17701,22038,23413,21386,23810,27466
24362,17418,17517,25439,19700,20607,21755,32455,17701,22038,23413,21386,23810,27466,37401
17418,17517,25439,19700,20607,21755,32455,17701,22038,23413,21386,23810,27466,37401,21995
17517,25439,19700,20607,21755,32455,17701,22038,23413,21386,23810,27466,37401,21995,23696
25439,19700,20607,21755,32455,17701,22038,23413,21386,23810,27466,37401,21995,23696,20706
19700,20607,21755,32455,17701,22038,23413,21386,23810,27466,37401,21995,23696,20706,23441
20607,21755,32455,17701,22038,23413,21386,23810,27466,37401,21995,23696,20706,23441,26346
21755,32455,17701,22038,23413,21386,23810,27466,37401,21995,23696,20706,23441,26346,25085
32455,17701,22038,23413,21386,23810,27466,37401,21995,23696,20706,23441,26346,25085,32951
