@relation cajero2_7

@attribute d1 numeric
@attribute d2 numeric
@attribute d3 numeric
@attribute d4 numeric
@attribute d5 numeric
@attribute d6 numeric
@attribute d7 numeric
@attribute prediction numeric


@data
12911,15448,20373,26297,33057,7738,17184,13485
15448,20373,26297,33057,7738,17184,13485,13768
20373,26297,33057,7738,17184,13485,13768,21521
26297,33057,7738,17184,13485,13768,21521,35211
33057,7738,17184,13485,13768,21521,35211,41093
7738,17184,13485,13768,21521,35211,41093,7412
17184,13485,13768,21521,35211,41093,7412,19933
13485,13768,21521,35211,41093,7412,19933,18821
13768,21521,35211,41093,7412,19933,18821,20295
21521,35211,41093,7412,19933,18821,20295,35884
35211,41093,7412,19933,18821,20295,35884,25935
41093,7412,19933,18821,20295,35884,25935,38542
7412,19933,18821,20295,35884,25935,38542,7171
19933,18821,20295,35884,25935,38542,7171,6037
18821,20295,35884,25935,38542,7171,6037,21436
20295,35884,25935,38542,7171,6037,21436,16929
35884,25935,38542,7171,6037,21436,16929,23469
25935,38542,7171,6037,21436,16929,23469,30541
38542,7171,6037,21436,16929,23469,30541,33036
7171,6037,21436,16929,23469,30541,33036,6994
6037,21436,16929,23469,30541,33036,6994,18424
21436,16929,23469,30541,33036,6994,18424,15058
16929,23469,30541,33036,6994,18424,15058,17928
23469,30541,33036,6994,18424,15058,17928,21478
30541,33036,6994,18424,15058,17928,21478,37691
33036,6994,18424,15058,17928,21478,37691,3387
6994,18424,15058,17928,21478,37691,3387,0000
18424,15058,17928,21478,37691,3387,0000,0000
15058,17928,21478,37691,3387,0000,0000,16404
17928,21478,37691,3387,0000,0000,16404,18134
21478,37691,3387,0000,0000,16404,18134,25468
37691,3387,0000,0000,16404,18134,25468,25113
3387,0000,0000,16404,18134,25468,25113,33914
0000,0000,16404,18134,25468,25113,33914,6661
0000,16404,18134,25468,25113,33914,6661,15859
16404,18134,25468,25113,33914,6661,15859,16291
18134,25468,25113,33914,6661,15859,16291,19579
25468,25113,33914,6661,15859,16291,19579,20933
25113,33914,6661,15859,16291,19579,20933,29053
33914,6661,15859,16291,19579,20933,29053,32986
6661,15859,16291,19579,20933,29053,32986,0000
15859,16291,19579,20933,29053,32986,0000,13875
16291,19579,20933,29053,32986,0000,13875,16298
19579,20933,29053,32986,0000,13875,16298,14803
20933,29053,32986,0000,13875,16298,14803,21181
29053,32986,0000,13875,16298,14803,21181,28437
32986,0000,13875,16298,14803,21181,28437,29684
0000,13875,16298,14803,21181,28437,29684,6661
13875,16298,14803,21181,28437,29684,6661,16369
16298,14803,21181,28437,29684,6661,16369,12181
14803,21181,28437,29684,6661,16369,12181,20571
21181,28437,29684,6661,16369,12181,20571,21861
28437,29684,6661,16369,12181,20571,21861,25794
29684,6661,16369,12181,20571,21861,25794,37578
6661,16369,12181,20571,21861,25794,37578,9297
16369,12181,20571,21861,25794,37578,9297,19955
12181,20571,21861,25794,37578,9297,19955,17836
20571,21861,25794,37578,9297,19955,17836,18396
21861,25794,37578,9297,19955,17836,18396,23739
25794,37578,9297,19955,17836,18396,23739,34857
37578,9297,19955,17836,18396,23739,34857,38414
9297,19955,17836,18396,23739,34857,38414,6576
19955,17836,18396,23739,34857,38414,6576,7107
17836,18396,23739,34857,38414,6576,7107,20961
18396,23739,34857,38414,6576,7107,20961,22158
23739,34857,38414,6576,7107,20961,22158,28876
34857,38414,6576,7107,20961,22158,28876,41610
38414,6576,7107,20961,22158,28876,41610,29202
6576,7107,20961,22158,28876,41610,29202,13067
7107,20961,22158,28876,41610,29202,13067,22073
20961,22158,28876,41610,29202,13067,22073,17262
22158,28876,41610,29202,13067,22073,17262,18644
28876,41610,29202,13067,22073,17262,18644,27211
41610,29202,13067,22073,17262,18644,27211,32178
29202,13067,22073,17262,18644,27211,32178,33673
13067,22073,17262,18644,27211,32178,33673,8185
22073,17262,18644,27211,32178,33673,8185,17248
17262,18644,27211,32178,33673,8185,17248,13577
18644,27211,32178,33673,8185,17248,13577,19352
27211,32178,33673,8185,17248,13577,19352,16681
32178,33673,8185,17248,13577,19352,16681,35020
33673,8185,17248,13577,19352,16681,35020,33277
8185,17248,13577,19352,16681,35020,33277,7880
17248,13577,19352,16681,35020,33277,7880,19508
13577,19352,16681,35020,33277,7880,19508,18275
19352,16681,35020,33277,7880,19508,18275,19721
16681,35020,33277,7880,19508,18275,19721,24851
35020,33277,7880,19508,18275,19721,24851,34899
33277,7880,19508,18275,19721,24851,34899,35261
7880,19508,18275,19721,24851,34899,35261,8319
19508,18275,19721,24851,34899,35261,8319,18141
18275,19721,24851,34899,35261,8319,18141,15682
19721,24851,34899,35261,8319,18141,15682,18417
24851,34899,35261,8319,18141,15682,18417,29918
34899,35261,8319,18141,15682,18417,29918,29663
35261,8319,18141,15682,18417,29918,29663,40214
8319,18141,15682,18417,29918,29663,40214,10721
18141,15682,18417,29918,29663,40214,10721,22073
15682,18417,29918,29663,40214,10721,22073,14796
18417,29918,29663,40214,10721,22073,14796,21188
29918,29663,40214,10721,22073,14796,21188,27934
29663,40214,10721,22073,14796,21188,27934,33277
40214,10721,22073,14796,21188,27934,33277,36239
10721,22073,14796,21188,27934,33277,36239,12351
22073,14796,21188,27934,33277,36239,12351,20196
14796,21188,27934,33277,36239,12351,20196,17786
21188,27934,33277,36239,12351,20196,17786,18736
27934,33277,36239,12351,20196,17786,18736,22803
33277,36239,12351,20196,17786,18736,22803,29422
36239,12351,20196,17786,18736,22803,29422,36324
12351,20196,17786,18736,22803,29422,36324,7674
20196,17786,18736,22803,29422,36324,7674,22399
17786,18736,22803,29422,36324,7674,22399,17595
18736,22803,29422,36324,7674,22399,17595,18424
22803,29422,36324,7674,22399,17595,18424,23370
29422,36324,7674,22399,17595,18424,23370,37018
36324,7674,22399,17595,18424,23370,37018,34439
7674,22399,17595,18424,23370,37018,34439,7504
22399,17595,18424,23370,37018,34439,7504,18963
17595,18424,23370,37018,34439,7504,18963,17623
18424,23370,37018,34439,7504,18963,17623,20741
23370,37018,34439,7504,18963,17623,20741,25865
37018,34439,7504,18963,17623,20741,25865,34439
34439,7504,18963,17623,20741,25865,34439,34800
7504,18963,17623,20741,25865,34439,34800,12146
18963,17623,20741,25865,34439,34800,12146,22647
17623,20741,25865,34439,34800,12146,22647,19558
20741,25865,34439,34800,12146,22647,19558,24426
25865,34439,34800,12146,22647,19558,24426,30038
34439,34800,12146,22647,19558,24426,30038,35247
34800,12146,22647,19558,24426,30038,35247,38698
12146,22647,19558,24426,30038,35247,38698,8220
22647,19558,24426,30038,35247,38698,8220,21266
19558,24426,30038,35247,38698,8220,21266,18304
24426,30038,35247,38698,8220,21266,18304,19537
30038,35247,38698,8220,21266,18304,19537,26857
35247,38698,8220,21266,18304,19537,26857,33794
38698,8220,21266,18304,19537,26857,33794,8957
8220,21266,18304,19537,26857,33794,8957,9021
21266,18304,19537,26857,33794,8957,9021,17900
18304,19537,26857,33794,8957,9021,17900,16468
19537,26857,33794,8957,9021,17900,16468,15526
26857,33794,8957,9021,17900,16468,15526,25574
33794,8957,9021,17900,16468,15526,25574,31335
8957,9021,17900,16468,15526,25574,31335,42517
9021,17900,16468,15526,25574,31335,42517,20111
17900,16468,15526,25574,31335,42517,20111,22612
16468,15526,25574,31335,42517,20111,22612,20167
15526,25574,31335,42517,20111,22612,20167,23250
25574,31335,42517,20111,22612,20167,23250,23512
31335,42517,20111,22612,20167,23250,23512,32915
42517,20111,22612,20167,23250,23512,32915,32391
20111,22612,20167,23250,23512,32915,32391,8390
22612,20167,23250,23512,32915,32391,8390,8794
20167,23250,23512,32915,32391,8390,8794,18275
23250,23512,32915,32391,8390,8794,18275,22484
23512,32915,32391,8390,8794,18275,22484,22314
32915,32391,8390,8794,18275,22484,22314,40441
32391,8390,8794,18275,22484,22314,40441,17786
8390,8794,18275,22484,22314,40441,17786,0000
8794,18275,22484,22314,40441,17786,0000,14187
18275,22484,22314,40441,17786,0000,14187,16128
22484,22314,40441,17786,0000,14187,16128,19678
22314,40441,17786,0000,14187,16128,19678,21166
40441,17786,0000,14187,16128,19678,21166,32830
17786,0000,14187,16128,19678,21166,32830,33836
0000,14187,16128,19678,21166,32830,33836,7738
14187,16128,19678,21166,32830,33836,7738,14831
16128,19678,21166,32830,33836,7738,14831,4698
19678,21166,32830,33836,7738,14831,4698,15193
21166,32830,33836,7738,14831,4698,15193,23661
32830,33836,7738,14831,4698,15193,23661,29726
33836,7738,14831,4698,15193,23661,29726,31243
7738,14831,4698,15193,23661,29726,31243,8560
14831,4698,15193,23661,29726,31243,8560,15469
4698,15193,23661,29726,31243,8560,15469,14966
15193,23661,29726,31243,8560,15469,14966,19147
23661,29726,31243,8560,15469,14966,19147,22491
29726,31243,8560,15469,14966,19147,22491,31937
31243,8560,15469,14966,19147,22491,31937,37372
8560,15469,14966,19147,22491,31937,37372,6689
15469,14966,19147,22491,31937,37372,6689,20033
14966,19147,22491,31937,37372,6689,20033,14810
19147,22491,31937,37372,6689,20033,14810,21457
22491,31937,37372,6689,20033,14810,21457,23200
31937,37372,6689,20033,14810,21457,23200,35537
37372,6689,20033,14810,21457,23200,35537,37705
6689,20033,14810,21457,23200,35537,37705,8716
20033,14810,21457,23200,35537,37705,8716,18226
14810,21457,23200,35537,37705,8716,18226,17354
21457,23200,35537,37705,8716,18226,17354,18396
23200,35537,37705,8716,18226,17354,18396,21903
35537,37705,8716,18226,17354,18396,21903,36692
37705,8716,18226,17354,18396,21903,36692,38357
8716,18226,17354,18396,21903,36692,38357,10402
18226,17354,18396,21903,36692,38357,10402,17106
17354,18396,21903,36692,38357,10402,17106,15299
18396,21903,36692,38357,10402,17106,15299,16504
21903,36692,38357,10402,17106,15299,16504,22902
36692,38357,10402,17106,15299,16504,22902,31470
38357,10402,17106,15299,16504,22902,31470,30223
10402,17106,15299,16504,22902,31470,30223,7958
17106,15299,16504,22902,31470,30223,7958,13535
15299,16504,22902,31470,30223,7958,13535,14718
16504,22902,31470,30223,7958,13535,14718,14753
22902,31470,30223,7958,13535,14718,14753,24419
31470,30223,7958,13535,14718,14753,24419,35367
30223,7958,13535,14718,14753,24419,35367,33759
7958,13535,14718,14753,24419,35367,33759,7582
13535,14718,14753,24419,35367,33759,7582,20614
14718,14753,24419,35367,33759,7582,20614,15242
14753,24419,35367,33759,7582,20614,15242,19048
24419,35367,33759,7582,20614,15242,19048,24844
35367,33759,7582,20614,15242,19048,24844,35240
33759,7582,20614,15242,19048,24844,35240,37273
7582,20614,15242,19048,24844,35240,37273,10580
20614,15242,19048,24844,35240,37273,10580,20507
15242,19048,24844,35240,37273,10580,20507,7058
19048,24844,35240,37273,10580,20507,7058,16837
24844,35240,37273,10580,20507,7058,16837,25765
35240,37273,10580,20507,7058,16837,25765,32547
37273,10580,20507,7058,16837,25765,32547,39768
10580,20507,7058,16837,25765,32547,39768,9701
20507,7058,16837,25765,32547,39768,9701,21280
7058,16837,25765,32547,39768,9701,21280,17312
16837,25765,32547,39768,9701,21280,17312,16001
25765,32547,39768,9701,21280,17312,16001,25418
32547,39768,9701,21280,17312,16001,25418,32455
39768,9701,21280,17312,16001,25418,32455,35870
9701,21280,17312,16001,25418,32455,35870,9715
21280,17312,16001,25418,32455,35870,9715,16341
17312,16001,25418,32455,35870,9715,16341,16461
16001,25418,32455,35870,9715,16341,16461,18523
25418,32455,35870,9715,16341,16461,18523,26701
32455,35870,9715,16341,16461,18523,26701,34524
35870,9715,16341,16461,18523,26701,34524,34425
9715,16341,16461,18523,26701,34524,34425,12592
16341,16461,18523,26701,34524,34425,12592,19437
16461,18523,26701,34524,34425,12592,19437,13846
18523,26701,34524,34425,12592,19437,13846,18970
26701,34524,34425,12592,19437,13846,18970,29606
34524,34425,12592,19437,13846,18970,29606,36118
34425,12592,19437,13846,18970,29606,36118,38294
12592,19437,13846,18970,29606,36118,38294,12124
19437,13846,18970,29606,36118,38294,12124,20429
13846,18970,29606,36118,38294,12124,20429,19593
18970,29606,36118,38294,12124,20429,19593,7391
29606,36118,38294,12124,20429,19593,7391,16156
36118,38294,12124,20429,19593,7391,16156,42595
38294,12124,20429,19593,7391,16156,42595,47130
12124,20429,19593,7391,16156,42595,47130,0000
20429,19593,7391,16156,42595,47130,0000,40689
19593,7391,16156,42595,47130,0000,40689,22548
7391,16156,42595,47130,0000,40689,22548,24518
16156,42595,47130,0000,40689,22548,24518,36940
42595,47130,0000,40689,22548,24518,36940,41950
47130,0000,40689,22548,24518,36940,41950,44345
0000,40689,22548,24518,36940,41950,44345,22463
40689,22548,24518,36940,41950,44345,22463,24029
22548,24518,36940,41950,44345,22463,24029,22031
24518,36940,41950,44345,22463,24029,22031,27579
36940,41950,44345,22463,24029,22031,27579,39201
41950,44345,22463,24029,22031,27579,39201,53749
44345,22463,24029,22031,27579,39201,53749,49256
22463,24029,22031,27579,39201,53749,49256,28493
24029,22031,27579,39201,53749,49256,28493,26035
22031,27579,39201,53749,49256,28493,26035,27905
27579,39201,53749,49256,28493,26035,27905,33206
39201,53749,49256,28493,26035,27905,33206,45040
53749,49256,28493,26035,27905,33206,45040,63889
49256,28493,26035,27905,33206,45040,63889,59623
28493,26035,27905,33206,45040,63889,59623,38549
26035,27905,33206,45040,63889,59623,38549,60799
27905,33206,45040,63889,59623,38549,60799,54464
33206,45040,63889,59623,38549,60799,54464,2338
45040,63889,59623,38549,60799,54464,2338,4053
63889,59623,38549,60799,54464,2338,4053,27069
59623,38549,60799,54464,2338,4053,27069,29138
38549,60799,54464,2338,4053,27069,29138,11154
60799,54464,2338,4053,27069,29138,11154,25794
54464,2338,4053,27069,29138,11154,25794,25283
2338,4053,27069,29138,11154,25794,25283,2948
4053,27069,29138,11154,25794,25283,2948,24192
27069,29138,11154,25794,25283,2948,24192,29932
29138,11154,25794,25283,2948,24192,29932,26927
11154,25794,25283,2948,24192,29932,26927,5201
25794,25283,2948,24192,29932,26927,5201,16497
25283,2948,24192,29932,26927,5201,16497,13407
2948,24192,29932,26927,5201,16497,13407,12713
24192,29932,26927,5201,16497,13407,12713,17744
29932,26927,5201,16497,13407,12713,17744,25099
26927,5201,16497,13407,12713,17744,25099,30669
5201,16497,13407,12713,17744,25099,30669,6335
16497,13407,12713,17744,25099,30669,6335,13705
13407,12713,17744,25099,30669,6335,13705,12755
12713,17744,25099,30669,6335,13705,12755,20479
17744,25099,30669,6335,13705,12755,20479,27622
25099,30669,6335,13705,12755,20479,27622,33404
30669,6335,13705,12755,20479,27622,33404,31179
6335,13705,12755,20479,27622,33404,31179,7285
13705,12755,20479,27622,33404,31179,7285,14952
12755,20479,27622,33404,31179,7285,14952,13605
20479,27622,33404,31179,7285,14952,13605,14272
27622,33404,31179,7285,14952,13605,14272,20153
33404,31179,7285,14952,13605,14272,20153,33319
31179,7285,14952,13605,14272,20153,33319,36281
7285,14952,13605,14272,20153,33319,36281,8716
14952,13605,14272,20153,33319,36281,8716,15944
13605,14272,20153,33319,36281,8716,15944,15618
14272,20153,33319,36281,8716,15944,15618,18722
20153,33319,36281,8716,15944,15618,18722,25496
33319,36281,8716,15944,15618,18722,25496,36267
36281,8716,15944,15618,18722,25496,36267,34864
8716,15944,15618,18722,25496,36267,34864,8206
15944,15618,18722,25496,36267,34864,8206,17588
15618,18722,25496,36267,34864,8206,17588,15249
18722,25496,36267,34864,8206,17588,15249,16823
25496,36267,34864,8206,17588,15249,16823,24532
36267,34864,8206,17588,15249,16823,24532,31179
34864,8206,17588,15249,16823,24532,31179,33461
8206,17588,15249,16823,24532,31179,33461,5215
17588,15249,16823,24532,31179,33461,5215,15505
15249,16823,24532,31179,33461,5215,15505,15278
16823,24532,31179,33461,5215,15505,15278,15646
24532,31179,33461,5215,15505,15278,15646,26063
31179,33461,5215,15505,15278,15646,26063,38818
33461,5215,15505,15278,15646,26063,38818,36862
5215,15505,15278,15646,26063,38818,36862,6845
15505,15278,15646,26063,38818,36862,6845,15916
15278,15646,26063,38818,36862,6845,15916,15094
15646,26063,38818,36862,6845,15916,15094,15476
26063,38818,36862,6845,15916,15094,15476,21698
38818,36862,6845,15916,15094,15476,21698,29847
36862,6845,15916,15094,15476,21698,29847,33078
6845,15916,15094,15476,21698,29847,33078,6633
15916,15094,15476,21698,29847,33078,6633,16241
15094,15476,21698,29847,33078,6633,16241,13506
15476,21698,29847,33078,6633,16241,13506,18268
21698,29847,33078,6633,16241,13506,18268,24263
29847,33078,6633,16241,13506,18268,24263,37486
33078,6633,16241,13506,18268,24263,37486,37783
6633,16241,13506,18268,24263,37486,37783,8489
16241,13506,18268,24263,37486,37783,8489,16156
13506,18268,24263,37486,37783,8489,16156,13152
18268,24263,37486,37783,8489,16156,13152,17262
24263,37486,37783,8489,16156,13152,17262,23852
37486,37783,8489,16156,13152,17262,23852,28458
37783,8489,16156,13152,17262,23852,28458,37146
8489,16156,13152,17262,23852,28458,37146,5003
16156,13152,17262,23852,28458,37146,5003,18424
13152,17262,23852,28458,37146,5003,18424,14002
17262,23852,28458,37146,5003,18424,14002,14668
23852,28458,37146,5003,18424,14002,14668,24447
28458,37146,5003,18424,14002,14668,24447,36054
37146,5003,18424,14002,14668,24447,36054,36961
5003,18424,14002,14668,24447,36054,36961,6193
18424,14002,14668,24447,36054,36961,6193,17361
14002,14668,24447,36054,36961,6193,17361,17007
14668,24447,36054,36961,6193,17361,17007,16440
24447,36054,36961,6193,17361,17007,16440,24759
36054,36961,6193,17361,17007,16440,24759,31831
36961,6193,17361,17007,16440,24759,31831,20550
6193,17361,17007,16440,24759,31831,20550,0000
17361,17007,16440,24759,31831,20550,0000,12769
17007,16440,24759,31831,20550,0000,12769,19657
16440,24759,31831,20550,0000,12769,19657,23186
24759,31831,20550,0000,12769,19657,23186,42078
31831,20550,0000,12769,19657,23186,42078,22109
20550,0000,12769,19657,23186,42078,22109,40037
0000,12769,19657,23186,42078,22109,40037,6505
12769,19657,23186,42078,22109,40037,6505,7200
19657,23186,42078,22109,40037,6505,7200,22024
23186,42078,22109,40037,6505,7200,22024,17389
42078,22109,40037,6505,7200,22024,17389,22477
22109,40037,6505,7200,22024,17389,22477,29889
40037,6505,7200,22024,17389,22477,29889,34552
6505,7200,22024,17389,22477,29889,34552,4266
7200,22024,17389,22477,29889,34552,4266,15859
22024,17389,22477,29889,34552,4266,15859,14031
17389,22477,29889,34552,4266,15859,14031,17758
22477,29889,34552,4266,15859,14031,17758,21514
29889,34552,4266,15859,14031,17758,21514,29167
34552,4266,15859,14031,17758,21514,29167,29663
4266,15859,14031,17758,21514,29167,29663,5981
15859,14031,17758,21514,29167,29663,5981,14555
14031,17758,21514,29167,29663,5981,14555,18084
17758,21514,29167,29663,5981,14555,18084,17701
21514,29167,29663,5981,14555,18084,17701,24192
29167,29663,5981,14555,18084,17701,24192,28047
29663,5981,14555,18084,17701,24192,28047,34991
5981,14555,18084,17701,24192,28047,34991,6803
14555,18084,17701,24192,28047,34991,6803,18410
18084,17701,24192,28047,34991,6803,18410,15292
17701,24192,28047,34991,6803,18410,15292,17404
24192,28047,34991,6803,18410,15292,17404,24660
28047,34991,6803,18410,15292,17404,24660,31774
34991,6803,18410,15292,17404,24660,31774,39314
6803,18410,15292,17404,24660,31774,39314,12075
18410,15292,17404,24660,31774,39314,12075,18920
15292,17404,24660,31774,39314,12075,18920,16681
17404,24660,31774,39314,12075,18920,16681,23498
24660,31774,39314,12075,18920,16681,23498,0000
31774,39314,12075,18920,16681,23498,0000,36650
39314,12075,18920,16681,23498,0000,36650,26545
12075,18920,16681,23498,0000,36650,26545,6250
18920,16681,23498,0000,36650,26545,6250,5598
16681,23498,0000,36650,26545,6250,5598,19260
23498,0000,36650,26545,6250,5598,19260,0000
0000,36650,26545,6250,5598,19260,0000,14697
36650,26545,6250,5598,19260,0000,14697,23243
26545,6250,5598,19260,0000,14697,23243,0000
6250,5598,19260,0000,14697,23243,0000,0000
5598,19260,0000,14697,23243,0000,0000,1190
19260,0000,14697,23243,0000,0000,1190,13464
0000,14697,23243,0000,0000,1190,13464,14342
14697,23243,0000,0000,1190,13464,14342,29195
23243,0000,0000,1190,13464,14342,29195,32880
0000,0000,1190,13464,14342,29195,32880,35020
0000,1190,13464,14342,29195,32880,35020,12316
1190,13464,14342,29195,32880,35020,12316,21514
13464,14342,29195,32880,35020,12316,21514,16114
14342,29195,32880,35020,12316,21514,16114,16128
29195,32880,35020,12316,21514,16114,16128,24164
32880,35020,12316,21514,16114,16128,24164,32270
35020,12316,21514,16114,16128,24164,32270,38931
12316,21514,16114,16128,24164,32270,38931,6448
21514,16114,16128,24164,32270,38931,6448,3897
16114,16128,24164,32270,38931,6448,3897,22265
16128,24164,32270,38931,6448,3897,22265,20578
24164,32270,38931,6448,3897,22265,20578,24858
32270,38931,6448,3897,22265,20578,24858,37982
38931,6448,3897,22265,20578,24858,37982,38223
6448,3897,22265,20578,24858,37982,38223,7171
3897,22265,20578,24858,37982,38223,7171,21117
22265,20578,24858,37982,38223,7171,21117,14158
20578,24858,37982,38223,7171,21117,14158,18254
24858,37982,38223,7171,21117,14158,18254,24844
37982,38223,7171,21117,14158,18254,24844,30060
38223,7171,21117,14158,18254,24844,30060,34552
7171,21117,14158,18254,24844,30060,34552,10828
21117,14158,18254,24844,30060,34552,10828,18367
14158,18254,24844,30060,34552,10828,18367,16468
18254,24844,30060,34552,10828,18367,16468,20040
24844,30060,34552,10828,18367,16468,20040,19501
30060,34552,10828,18367,16468,20040,19501,34949
34552,10828,18367,16468,20040,19501,34949,0000
10828,18367,16468,20040,19501,34949,0000,0000
18367,16468,20040,19501,34949,0000,0000,14427
16468,20040,19501,34949,0000,0000,14427,13747
20040,19501,34949,0000,0000,14427,13747,16681
19501,34949,0000,0000,14427,13747,16681,21896
34949,0000,0000,14427,13747,16681,21896,27693
0000,0000,14427,13747,16681,21896,27693,0000
0000,14427,13747,16681,21896,27693,0000,0000
14427,13747,16681,21896,27693,0000,0000,15476
13747,16681,21896,27693,0000,0000,15476,17616
16681,21896,27693,0000,0000,15476,17616,17673
21896,27693,0000,0000,15476,17616,17673,26786
27693,0000,0000,15476,17616,17673,26786,37075
0000,0000,15476,17616,17673,26786,37075,0156
0000,15476,17616,17673,26786,37075,0156,0000
15476,17616,17673,26786,37075,0156,0000,0000
17616,17673,26786,37075,0156,0000,0000,0000
17673,26786,37075,0156,0000,0000,0000,17914
26786,37075,0156,0000,0000,0000,17914,44444
37075,0156,0000,0000,0000,17914,44444,26006
0156,0000,0000,0000,17914,44444,26006,38308
0000,0000,0000,17914,44444,26006,38308,10601
0000,0000,17914,44444,26006,38308,10601,20762
0000,17914,44444,26006,38308,10601,20762,9680
17914,44444,26006,38308,10601,20762,9680,11480
44444,26006,38308,10601,20762,9680,11480,26375
26006,38308,10601,20762,9680,11480,26375,33418
38308,10601,20762,9680,11480,26375,33418,35190
10601,20762,9680,11480,26375,33418,35190,8461
20762,9680,11480,26375,33418,35190,8461,20437
9680,11480,26375,33418,35190,8461,20437,8603
11480,26375,33418,35190,8461,20437,8603,15788
26375,33418,35190,8461,20437,8603,15788,25907
33418,35190,8461,20437,8603,15788,25907,31902
35190,8461,20437,8603,15788,25907,31902,37500
8461,20437,8603,15788,25907,31902,37500,9566
20437,8603,15788,25907,31902,37500,9566,23441
8603,15788,25907,31902,37500,9566,23441,18353
15788,25907,31902,37500,9566,23441,18353,20139
25907,31902,37500,9566,23441,18353,20139,25751
31902,37500,9566,23441,18353,20139,25751,32837
37500,9566,23441,18353,20139,25751,32837,33121
9566,23441,18353,20139,25751,32837,33121,9623
23441,18353,20139,25751,32837,33121,9623,19289
18353,20139,25751,32837,33121,9623,19289,21429
20139,25751,32837,33121,9623,19289,21429,23441
25751,32837,33121,9623,19289,21429,23441,27494
32837,33121,9623,19289,21429,23441,27494,37642
33121,9623,19289,21429,23441,27494,37642,36621
9623,19289,21429,23441,27494,37642,36621,10402
19289,21429,23441,27494,37642,36621,10402,19402
21429,23441,27494,37642,36621,10402,19402,17234
23441,27494,37642,36621,10402,19402,17234,19005
27494,37642,36621,10402,19402,17234,19005,22775
37642,36621,10402,19402,17234,19005,22775,31278
36621,10402,19402,17234,19005,22775,31278,32596
10402,19402,17234,19005,22775,31278,32596,6817
19402,17234,19005,22775,31278,32596,6817,17772
17234,19005,22775,31278,32596,6817,17772,14938
19005,22775,31278,32596,6817,17772,14938,16681
22775,31278,32596,6817,17772,14938,16681,23257
31278,32596,6817,17772,14938,16681,23257,36834
32596,6817,17772,14938,16681,23257,36834,31236
6817,17772,14938,16681,23257,36834,31236,5060
17772,14938,16681,23257,36834,31236,5060,21060
14938,16681,23257,36834,31236,5060,21060,16511
16681,23257,36834,31236,5060,21060,16511,19033
23257,36834,31236,5060,21060,16511,19033,22080
36834,31236,5060,21060,16511,19033,22080,29918
31236,5060,21060,16511,19033,22080,29918,42800
5060,21060,16511,19033,22080,29918,42800,6718
21060,16511,19033,22080,29918,42800,6718,6590
16511,19033,22080,29918,42800,6718,6590,22775
19033,22080,29918,42800,6718,6590,22775,19572
22080,29918,42800,6718,6590,22775,19572,26942
29918,42800,6718,6590,22775,19572,26942,40108
42800,6718,6590,22775,19572,26942,40108,42602
6718,6590,22775,19572,26942,40108,42602,14470
6590,22775,19572,26942,40108,42602,14470,27480
22775,19572,26942,40108,42602,14470,27480,20989
19572,26942,40108,42602,14470,27480,20989,16567
26942,40108,42602,14470,27480,20989,16567,23980
40108,42602,14470,27480,20989,16567,23980,34595
42602,14470,27480,20989,16567,23980,34595,16327
14470,27480,20989,16567,23980,34595,16327,7455
27480,20989,16567,23980,34595,16327,7455,18707
20989,16567,23980,34595,16327,7455,18707,14838
16567,23980,34595,16327,7455,18707,14838,19870
23980,34595,16327,7455,18707,14838,19870,22775
34595,16327,7455,18707,14838,19870,22775,27905
16327,7455,18707,14838,19870,22775,27905,21358
7455,18707,14838,19870,22775,27905,21358,7242
18707,14838,19870,22775,27905,21358,7242,8092
14838,19870,22775,27905,21358,7242,8092,2608
19870,22775,27905,21358,7242,8092,2608,12075
22775,27905,21358,7242,8092,2608,12075,6675
27905,21358,7242,8092,2608,12075,6675,24348
21358,7242,8092,2608,12075,6675,24348,35686
7242,8092,2608,12075,6675,24348,35686,7526
8092,2608,12075,6675,24348,35686,7526,18934
2608,12075,6675,24348,35686,7526,18934,17021
12075,6675,24348,35686,7526,18934,17021,20309
6675,24348,35686,7526,18934,17021,20309,28274
24348,35686,7526,18934,17021,20309,28274,38804
35686,7526,18934,17021,20309,28274,38804,41922
7526,18934,17021,20309,28274,38804,41922,8177
18934,17021,20309,28274,38804,41922,8177,21443
17021,20309,28274,38804,41922,8177,21443,20918
20309,28274,38804,41922,8177,21443,20918,22662
28274,38804,41922,8177,21443,20918,22662,29138
38804,41922,8177,21443,20918,22662,29138,32129
41922,8177,21443,20918,22662,29138,32129,35402
8177,21443,20918,22662,29138,32129,35402,7653
21443,20918,22662,29138,32129,35402,7653,16851
20918,22662,29138,32129,35402,7653,16851,14399
22662,29138,32129,35402,7653,16851,14399,18296
29138,32129,35402,7653,16851,14399,18296,24022
32129,35402,7653,16851,14399,18296,24022,32313
35402,7653,16851,14399,18296,24022,32313,34084
7653,16851,14399,18296,24022,32313,34084,6321
16851,14399,18296,24022,32313,34084,6321,10360
14399,18296,24022,32313,34084,6321,10360,12826
18296,24022,32313,34084,6321,10360,12826,21003
24022,32313,34084,6321,10360,12826,21003,22123
32313,34084,6321,10360,12826,21003,22123,33092
34084,6321,10360,12826,21003,22123,33092,1701
6321,10360,12826,21003,22123,33092,1701,6151
10360,12826,21003,22123,33092,1701,6151,18523
12826,21003,22123,33092,1701,6151,18523,20564
21003,22123,33092,1701,6151,18523,20564,17347
22123,33092,1701,6151,18523,20564,17347,23469
33092,1701,6151,18523,20564,17347,23469,33404
1701,6151,18523,20564,17347,23469,33404,35530
6151,18523,20564,17347,23469,33404,35530,6278
18523,20564,17347,23469,33404,35530,6278,16199
20564,17347,23469,33404,35530,6278,16199,0000
17347,23469,33404,35530,6278,16199,0000,12486
23469,33404,35530,6278,16199,0000,12486,13166
33404,35530,6278,16199,0000,12486,13166,37543
35530,6278,16199,0000,12486,13166,37543,36168
6278,16199,0000,12486,13166,37543,36168,7440
16199,0000,12486,13166,37543,36168,7440,22988
0000,12486,13166,37543,36168,7440,22988,17871
12486,13166,37543,36168,7440,22988,17871,21386
13166,37543,36168,7440,22988,17871,21386,22208
37543,36168,7440,22988,17871,21386,22208,32341
36168,7440,22988,17871,21386,22208,32341,34595
7440,22988,17871,21386,22208,32341,34595,7611
22988,17871,21386,22208,32341,34595,7611,16383
17871,21386,22208,32341,34595,7611,16383,17744
21386,22208,32341,34595,7611,16383,17744,16114
22208,32341,34595,7611,16383,17744,16114,13719
32341,34595,7611,16383,17744,16114,13719,23101
34595,7611,16383,17744,16114,13719,23101,0000
7611,16383,17744,16114,13719,23101,0000,19147
16383,17744,16114,13719,23101,0000,19147,25113
17744,16114,13719,23101,0000,19147,25113,16596
16114,13719,23101,0000,19147,25113,16596,21925
13719,23101,0000,19147,25113,16596,21925,25950
23101,0000,19147,25113,16596,21925,25950,39541
0000,19147,25113,16596,21925,25950,39541,42928
19147,25113,16596,21925,25950,39541,42928,24731
25113,16596,21925,25950,39541,42928,24731,24561
16596,21925,25950,39541,42928,24731,24561,19997
21925,25950,39541,42928,24731,24561,19997,22591
25950,39541,42928,24731,24561,19997,22591,31647
39541,42928,24731,24561,19997,22591,31647,48384
42928,24731,24561,19997,22591,31647,48384,49957
24731,24561,19997,22591,31647,48384,49957,22761
24561,19997,22591,31647,48384,49957,22761,28586
19997,22591,31647,48384,49957,22761,28586,21584
22591,31647,48384,49957,22761,28586,21584,23654
31647,48384,49957,22761,28586,21584,23654,33716
48384,49957,22761,28586,21584,23654,33716,44246
49957,22761,28586,21584,23654,33716,44246,44827
22761,28586,21584,23654,33716,44246,44827,19700
28586,21584,23654,33716,44246,44827,19700,22520
21584,23654,33716,44246,44827,19700,22520,22010
23654,33716,44246,44827,19700,22520,22010,24306
33716,44246,44827,19700,22520,22010,24306,34481
44246,44827,19700,22520,22010,24306,34481,51474
44827,19700,22520,22010,24306,34481,51474,47917
19700,22520,22010,24306,34481,51474,47917,27353
22520,22010,24306,34481,51474,47917,27353,34453
22010,24306,34481,51474,47917,27353,34453,26927
24306,34481,51474,47917,27353,34453,26927,30782
34481,51474,47917,27353,34453,26927,30782,49036
51474,47917,27353,34453,26927,30782,49036,68027
47917,27353,34453,26927,30782,49036,68027,63605
27353,34453,26927,30782,49036,68027,63605,19118
34453,26927,30782,49036,68027,63605,19118,47945
26927,30782,49036,68027,63605,19118,47945,46896
30782,49036,68027,63605,19118,47945,46896,62939
49036,68027,63605,19118,47945,46896,62939,2679
68027,63605,19118,47945,46896,62939,2679,3968
63605,19118,47945,46896,62939,2679,3968,39243
19118,47945,46896,62939,2679,3968,39243,18141
47945,46896,62939,2679,3968,39243,18141,27976
46896,62939,2679,3968,39243,18141,27976,25680
62939,2679,3968,39243,18141,27976,25680,38350
2679,3968,39243,18141,27976,25680,38350,3486
3968,39243,18141,27976,25680,38350,3486,30683
39243,18141,27976,25680,38350,3486,30683,31179
18141,27976,25680,38350,3486,30683,31179,4762
27976,25680,38350,3486,30683,31179,4762,17999
25680,38350,3486,30683,31179,4762,17999,13861
38350,3486,30683,31179,4762,17999,13861,14569
3486,30683,31179,4762,17999,13861,14569,18552
30683,31179,4762,17999,13861,14569,18552,31689
31179,4762,17999,13861,14569,18552,31689,33503
4762,17999,13861,14569,18552,31689,33503,8220
17999,13861,14569,18552,31689,33503,8220,19940
13861,14569,18552,31689,33503,8220,19940,12982
14569,18552,31689,33503,8220,19940,12982,14144
18552,31689,33503,8220,19940,12982,14144,23413
31689,33503,8220,19940,12982,14144,23413,31845
33503,8220,19940,12982,14144,23413,31845,34836
8220,19940,12982,14144,23413,31845,34836,6463
19940,12982,14144,23413,31845,34836,6463,19515
12982,14144,23413,31845,34836,6463,19515,11310
14144,23413,31845,34836,6463,19515,11310,15703
23413,31845,34836,6463,19515,11310,15703,19260
31845,34836,6463,19515,11310,15703,19260,29408
34836,6463,19515,11310,15703,19260,29408,36097
6463,19515,11310,15703,19260,29408,36097,6746
19515,11310,15703,19260,29408,36097,6746,14059
11310,15703,19260,29408,36097,6746,14059,14725
15703,19260,29408,36097,6746,14059,14725,18807
19260,29408,36097,6746,14059,14725,18807,21188
29408,36097,6746,14059,14725,18807,21188,37004
36097,6746,14059,14725,18807,21188,37004,34935
6746,14059,14725,18807,21188,37004,34935,8532
14059,14725,18807,21188,37004,34935,8532,16497
14725,18807,21188,37004,34935,8532,16497,15094
18807,21188,37004,34935,8532,16497,15094,16284
21188,37004,34935,8532,16497,15094,16284,19813
37004,34935,8532,16497,15094,16284,19813,31023
34935,8532,16497,15094,16284,19813,31023,32908
8532,16497,15094,16284,19813,31023,32908,5456
16497,15094,16284,19813,31023,32908,5456,16723
15094,16284,19813,31023,32908,5456,16723,16142
16284,19813,31023,32908,5456,16723,16142,17914
19813,31023,32908,5456,16723,16142,17914,20026
31023,32908,5456,16723,16142,17914,20026,35601
32908,5456,16723,16142,17914,20026,35601,37344
5456,16723,16142,17914,20026,35601,37344,4989
16723,16142,17914,20026,35601,37344,4989,14569
16142,17914,20026,35601,37344,4989,14569,13719
17914,20026,35601,37344,4989,14569,13719,17177
20026,35601,37344,4989,14569,13719,17177,20224
35601,37344,4989,14569,13719,17177,20224,26502
37344,4989,14569,13719,17177,20224,26502,29011
4989,14569,13719,17177,20224,26502,29011,8503
14569,13719,17177,20224,26502,29011,8503,15519
13719,17177,20224,26502,29011,8503,15519,14881
17177,20224,26502,29011,8503,15519,14881,19218
20224,26502,29011,8503,15519,14881,19218,22846
26502,29011,8503,15519,14881,19218,22846,26361
29011,8503,15519,14881,19218,22846,26361,36097
8503,15519,14881,19218,22846,26361,36097,7115
15519,14881,19218,22846,26361,36097,7115,16086
14881,19218,22846,26361,36097,7115,16086,9751
19218,22846,26361,36097,7115,16086,9751,16071
22846,26361,36097,7115,16086,9751,16071,20536
26361,36097,7115,16086,9751,16071,20536,25241
36097,7115,16086,9751,16071,20536,25241,0737
7115,16086,9751,16071,20536,25241,0737,0000
16086,9751,16071,20536,25241,0737,0000,0751
9751,16071,20536,25241,0737,0000,0751,13705
16071,20536,25241,0737,0000,0751,13705,15377
20536,25241,0737,0000,0751,13705,15377,20309
25241,0737,0000,0751,13705,15377,20309,36650
0737,0000,0751,13705,15377,20309,36650,37344
0000,0751,13705,15377,20309,36650,37344,14697
0751,13705,15377,20309,36650,37344,14697,19912
13705,15377,20309,36650,37344,14697,19912,9921
15377,20309,36650,37344,14697,19912,9921,17092
20309,36650,37344,14697,19912,9921,17092,21584
36650,37344,14697,19912,9921,17092,21584,33149
37344,14697,19912,9921,17092,21584,33149,39725
14697,19912,9921,17092,21584,33149,39725,7228
19912,9921,17092,21584,33149,39725,7228,11947
9921,17092,21584,33149,39725,7228,11947,15079
17092,21584,33149,39725,7228,11947,15079,18396
21584,33149,39725,7228,11947,15079,18396,22520
33149,39725,7228,11947,15079,18396,22520,38861
39725,7228,11947,15079,18396,22520,38861,39456
7228,11947,15079,18396,22520,38861,39456,7823
11947,15079,18396,22520,38861,39456,7823,17602
15079,18396,22520,38861,39456,7823,17602,18438
18396,22520,38861,39456,7823,17602,18438,19062
22520,38861,39456,7823,17602,18438,19062,23087
38861,39456,7823,17602,18438,19062,23087,34821
39456,7823,17602,18438,19062,23087,34821,38903
7823,17602,18438,19062,23087,34821,38903,6505
17602,18438,19062,23087,34821,38903,6505,18594
18438,19062,23087,34821,38903,6505,18594,14668
19062,23087,34821,38903,6505,18594,14668,11182
23087,34821,38903,6505,18594,14668,11182,29719
34821,38903,6505,18594,14668,11182,29719,23569
38903,6505,18594,14668,11182,29719,23569,36990
6505,18594,14668,11182,29719,23569,36990,6604
18594,14668,11182,29719,23569,36990,6604,4167
14668,11182,29719,23569,36990,6604,4167,19260
11182,29719,23569,36990,6604,4167,19260,22350
29719,23569,36990,6604,4167,19260,22350,23257
23569,36990,6604,4167,19260,22350,23257,34382
36990,6604,4167,19260,22350,23257,34382,38988
6604,4167,19260,22350,23257,34382,38988,5343
4167,19260,22350,23257,34382,38988,5343,12925
19260,22350,23257,34382,38988,5343,12925,15561
22350,23257,34382,38988,5343,12925,15561,13662
23257,34382,38988,5343,12925,15561,13662,20181
34382,38988,5343,12925,15561,13662,20181,33971
38988,5343,12925,15561,13662,20181,33971,33872
5343,12925,15561,13662,20181,33971,33872,6307
12925,15561,13662,20181,33971,33872,6307,17914
15561,13662,20181,33971,33872,6307,17914,15122
13662,20181,33971,33872,6307,17914,15122,20210
20181,33971,33872,6307,17914,15122,20210,27976
33971,33872,6307,17914,15122,20210,27976,37358
33872,6307,17914,15122,20210,27976,37358,34921
6307,17914,15122,20210,27976,37358,34921,8121
17914,15122,20210,27976,37358,34921,8121,6590
15122,20210,27976,37358,34921,8121,6590,18070
20210,27976,37358,34921,8121,6590,18070,14215
27976,37358,34921,8121,6590,18070,14215,19714
37358,34921,8121,6590,18070,14215,19714,25298
