@relation prediccion_1_7

@attribute d1 numeric
@attribute d2 numeric
@attribute d3 numeric
@attribute d4 numeric
@attribute d5 numeric
@attribute d6 numeric
@attribute d7 numeric
@attribute prediction numeric

@data
12764.767,11660.67,9894.564,7342.457,7651.111,4853.008,9098.382,?
